(export (version D)
  (design
    (source D:\usb_emb_ctrl\hw\usb_emb_ctrl\usb_emb_ctrl.sch)
    (date "18.5.2018 10:16:13")
    (tool "Eeschema (5.0.0-rc2-dev-352-g017154715)")
    (sheet (number 1) (name /) (tstamps /)
      (title_block
        (title)
        (company)
        (rev)
        (date)
        (source usb_emb_ctrl.sch)
        (comment (number 1) (value ""))
        (comment (number 2) (value ""))
        (comment (number 3) (value ""))
        (comment (number 4) (value "")))))
  (components
    (comp (ref U2)
      (value U_MCU_NXP_LPC11U68JBD64)
      (footprint ic_smt:QFP64P50_1200X1200X160L60X22HD)
      (libsource (lib ic) (part U_MCU_NXP_LPC11U68JBD64))
      (sheetpath (names /) (tstamps /))
      (tstamp 5AF502BF))
    (comp (ref Q1)
      (value XTAL_4PIN)
      (footprint discrete_smt:OSCC320X250X70_TXC_7M)
      (libsource (lib passive) (part XTAL_4PIN))
      (sheetpath (names /) (tstamps /))
      (tstamp 5AF5DD1C))
    (comp (ref C2)
      (value 18pF)
      (footprint discrete_smt:CAPC1005X55_0402_IPC-B)
      (libsource (lib passive) (part C_NP))
      (sheetpath (names /) (tstamps /))
      (tstamp 5AF5DE27))
    (comp (ref C8)
      (value 18pF)
      (footprint discrete_smt:CAPC1005X55_0402_IPC-B)
      (libsource (lib passive) (part C_NP))
      (sheetpath (names /) (tstamps /))
      (tstamp 5AF5DF77))
    (comp (ref J9)
      (value J_STD_USB2.0_TYPE-B)
      (footprint connector_tht:MOLEX_67068-7041_USB2.0-B)
      (libsource (lib connector) (part J_STD_USB2.0_TYPE-B))
      (sheetpath (names /) (tstamps /))
      (tstamp 5AF6252E))
    (comp (ref R2)
      (value 0R)
      (footprint discrete_smt:CAPC1608X95N_0603_IPC-B)
      (libsource (lib passive) (part R))
      (sheetpath (names /) (tstamps /))
      (tstamp 5AF67FE4))
    (comp (ref R3)
      (value 0R)
      (footprint discrete_smt:CAPC1608X95N_0603_IPC-B)
      (libsource (lib passive) (part R))
      (sheetpath (names /) (tstamps /))
      (tstamp 5AF69672))
    (comp (ref R4)
      (value 0R)
      (footprint discrete_smt:CAPC1608X95N_0603_IPC-B)
      (libsource (lib passive) (part R))
      (sheetpath (names /) (tstamps /))
      (tstamp 5AF696A9))
    (comp (ref C4)
      (value 100nF)
      (footprint discrete_smt:CAPC1005X55_0402_IPC-B)
      (libsource (lib passive) (part C_NP))
      (sheetpath (names /) (tstamps /))
      (tstamp 5AF704A1))
    (comp (ref C3)
      (value 10uF)
      (footprint discrete_smt:CAPC1608X95N_0603_IPC-B)
      (libsource (lib passive) (part C_NP))
      (sheetpath (names /) (tstamps /))
      (tstamp 5AF710D7))
    (comp (ref C5)
      (value 100nF)
      (footprint discrete_smt:CAPC1005X55_0402_IPC-B)
      (libsource (lib passive) (part C_NP))
      (sheetpath (names /) (tstamps /))
      (tstamp 5AF72987))
    (comp (ref C6)
      (value 100nF)
      (footprint discrete_smt:CAPC1005X55_0402_IPC-B)
      (libsource (lib passive) (part C_NP))
      (sheetpath (names /) (tstamps /))
      (tstamp 5AF735B8))
    (comp (ref C7)
      (value 100nF)
      (footprint discrete_smt:CAPC1005X55_0402_IPC-B)
      (libsource (lib passive) (part C_NP))
      (sheetpath (names /) (tstamps /))
      (tstamp 5AF741E4))
    (comp (ref C9)
      (value 100nF)
      (footprint discrete_smt:CAPC1005X55_0402_IPC-B)
      (libsource (lib passive) (part C_NP))
      (sheetpath (names /) (tstamps /))
      (tstamp 5AF74E15))
    (comp (ref C10)
      (value 100nF)
      (footprint discrete_smt:CAPC1005X55_0402_IPC-B)
      (libsource (lib passive) (part C_NP))
      (sheetpath (names /) (tstamps /))
      (tstamp 5AF75A59))
    (comp (ref R1)
      (value 1k)
      (footprint discrete_smt:CAPC1608X95N_0603_IPC-B)
      (libsource (lib passive) (part R))
      (sheetpath (names /) (tstamps /))
      (tstamp 5AF94389))
    (comp (ref C1)
      (value 100nF)
      (footprint discrete_smt:CAPC1005X55_0402_IPC-B)
      (libsource (lib passive) (part C_NP))
      (sheetpath (names /) (tstamps /))
      (tstamp 5AF9447B))
    (comp (ref J1)
      (value MOLEX_3930-1060)
      (footprint connector_tht:MOLEX_47053-1000)
      (libsource (lib connector) (part J_STD_FAN_4PIN))
      (sheetpath (names /) (tstamps /))
      (tstamp 5AFA3E82))
    (comp (ref J10)
      (value J_STD_ATX-PCIEX6)
      (footprint connector_tht:MOLEX_39-30-1060_ATX6PIN)
      (libsource (lib connector) (part J_STD_ATX-PCIEX6))
      (sheetpath (names /) (tstamps /))
      (tstamp 5AF98ED3))
    (comp (ref Q2)
      (value FDN337N)
      (footprint ic_smt:SOT-23_ONSEMI_2N7002)
      (libsource (lib active) (part NFET))
      (sheetpath (names /) (tstamps /))
      (tstamp 5AF9A25F))
    (comp (ref R5)
      (value 10k)
      (footprint discrete_smt:RESC1608X50N_0603_WAVEPAD)
      (libsource (lib passive) (part R))
      (sheetpath (names /) (tstamps /))
      (tstamp 5AFF47DE))
    (comp (ref R6)
      (value 6k8)
      (footprint discrete_smt:RESC1608X50N_0603_WAVEPAD)
      (libsource (lib passive) (part R))
      (sheetpath (names /) (tstamps /))
      (tstamp 5AFF48A1))
    (comp (ref R11)
      (value 10k)
      (footprint discrete_smt:RESC1608X50N_0603_WAVEPAD)
      (libsource (lib passive) (part R))
      (sheetpath (names /) (tstamps /))
      (tstamp 5AFFF5A4))
    (comp (ref D1)
      (value 1N4148WS)
      (footprint discrete_smt:SODFL250X125X90L40X30N_SOD-323FL)
      (libsource (lib active) (part D))
      (sheetpath (names /) (tstamps /))
      (tstamp 5B0C5978))
    (comp (ref J2)
      (value MOLEX_3930-1060)
      (footprint connector_tht:MOLEX_47053-1000)
      (libsource (lib connector) (part J_STD_FAN_4PIN))
      (sheetpath (names /) (tstamps /))
      (tstamp 5B0EDC3F))
    (comp (ref Q3)
      (value FDN337N)
      (footprint ic_smt:SOT-23_ONSEMI_2N7002)
      (libsource (lib active) (part NFET))
      (sheetpath (names /) (tstamps /))
      (tstamp 5B0EDC47))
    (comp (ref R7)
      (value 10k)
      (footprint discrete_smt:RESC1608X50N_0603_WAVEPAD)
      (libsource (lib passive) (part R))
      (sheetpath (names /) (tstamps /))
      (tstamp 5B0EDC5B))
    (comp (ref R8)
      (value 6k8)
      (footprint discrete_smt:RESC1608X50N_0603_WAVEPAD)
      (libsource (lib passive) (part R))
      (sheetpath (names /) (tstamps /))
      (tstamp 5B0EDC62))
    (comp (ref R12)
      (value 10k)
      (footprint discrete_smt:RESC1608X50N_0603_WAVEPAD)
      (libsource (lib passive) (part R))
      (sheetpath (names /) (tstamps /))
      (tstamp 5B0EDC71))
    (comp (ref D2)
      (value 1N4148WS)
      (footprint discrete_smt:SODFL250X125X90L40X30N_SOD-323FL)
      (libsource (lib active) (part D))
      (sheetpath (names /) (tstamps /))
      (tstamp 5B0EDC90))
    (comp (ref J3)
      (value MOLEX_3930-1060)
      (footprint connector_tht:MOLEX_47053-1000)
      (libsource (lib connector) (part J_STD_FAN_4PIN))
      (sheetpath (names /) (tstamps /))
      (tstamp 5B0FA79F))
    (comp (ref Q4)
      (value FDN337N)
      (footprint ic_smt:SOT-23_ONSEMI_2N7002)
      (libsource (lib active) (part NFET))
      (sheetpath (names /) (tstamps /))
      (tstamp 5B0FA7A7))
    (comp (ref R9)
      (value 10k)
      (footprint discrete_smt:RESC1608X50N_0603_WAVEPAD)
      (libsource (lib passive) (part R))
      (sheetpath (names /) (tstamps /))
      (tstamp 5B0FA7BB))
    (comp (ref R10)
      (value 6k8)
      (footprint discrete_smt:RESC1608X50N_0603_WAVEPAD)
      (libsource (lib passive) (part R))
      (sheetpath (names /) (tstamps /))
      (tstamp 5B0FA7C2))
    (comp (ref R13)
      (value 10k)
      (footprint discrete_smt:RESC1608X50N_0603_WAVEPAD)
      (libsource (lib passive) (part R))
      (sheetpath (names /) (tstamps /))
      (tstamp 5B0FA7D1))
    (comp (ref D3)
      (value 1N4148WS)
      (footprint discrete_smt:SODFL250X125X90L40X30N_SOD-323FL)
      (libsource (lib active) (part D))
      (sheetpath (names /) (tstamps /))
      (tstamp 5B0FA7F0))
    (comp (ref R16)
      (value 0R)
      (footprint discrete_smt:RESC1608X50N_0603_WAVEPAD)
      (libsource (lib passive) (part R))
      (sheetpath (names /) (tstamps /))
      (tstamp 5B10C65F))
    (comp (ref R15)
      (value 0R)
      (footprint discrete_smt:RESC1608X50N_0603_WAVEPAD)
      (libsource (lib passive) (part R))
      (sheetpath (names /) (tstamps /))
      (tstamp 5B11D7D3))
    (comp (ref R14)
      (value 0R)
      (footprint discrete_smt:RESC1608X50N_0603_WAVEPAD)
      (libsource (lib passive) (part R))
      (sheetpath (names /) (tstamps /))
      (tstamp 5B1285C1))
    (comp (ref J5)
      (value J_GEN_4PIN-1COLX4ROW)
      (footprint connector_tht:PINHEADER_2.54MM_1x4)
      (libsource (lib connector) (part J_GEN_4PIN-1COLX4ROW))
      (sheetpath (names /) (tstamps /))
      (tstamp 5AF9ED5E))
    (comp (ref R17)
      (value 0R)
      (footprint discrete_smt:RESC1608X50N_0603_WAVEPAD)
      (libsource (lib passive) (part R))
      (sheetpath (names /) (tstamps /))
      (tstamp 5AFE229A))
    (comp (ref R19)
      (value 0R)
      (footprint discrete_smt:RESC1608X50N_0603_WAVEPAD)
      (libsource (lib passive) (part R))
      (sheetpath (names /) (tstamps /))
      (tstamp 5AFE2869))
    (comp (ref R18)
      (value 0R)
      (footprint discrete_smt:RESC1608X50N_0603_WAVEPAD)
      (libsource (lib passive) (part R))
      (sheetpath (names /) (tstamps /))
      (tstamp 5B01DCC3))
    (comp (ref R20)
      (value 0R)
      (footprint discrete_smt:RESC1608X50N_0603_WAVEPAD)
      (libsource (lib passive) (part R))
      (sheetpath (names /) (tstamps /))
      (tstamp 5B01DCCA))
    (comp (ref J6)
      (value J_GEN_4PIN-1COLX4ROW)
      (footprint connector_tht:PINHEADER_2.54MM_1x4)
      (libsource (lib connector) (part J_GEN_4PIN-1COLX4ROW))
      (sheetpath (names /) (tstamps /))
      (tstamp 5B149B11))
    (comp (ref R21)
      (value 0R)
      (footprint discrete_smt:RESC1608X50N_0603_WAVEPAD)
      (libsource (lib passive) (part R))
      (sheetpath (names /) (tstamps /))
      (tstamp 5B149B29))
    (comp (ref R23)
      (value 0R)
      (footprint discrete_smt:RESC1608X50N_0603_WAVEPAD)
      (libsource (lib passive) (part R))
      (sheetpath (names /) (tstamps /))
      (tstamp 5B149B30))
    (comp (ref R22)
      (value 0R)
      (footprint discrete_smt:RESC1608X50N_0603_WAVEPAD)
      (libsource (lib passive) (part R))
      (sheetpath (names /) (tstamps /))
      (tstamp 5B149B3B))
    (comp (ref R24)
      (value 0R)
      (footprint discrete_smt:RESC1608X50N_0603_WAVEPAD)
      (libsource (lib passive) (part R))
      (sheetpath (names /) (tstamps /))
      (tstamp 5B149B42))
    (comp (ref J7)
      (value J_GEN_4PIN-1COLX4ROW)
      (footprint connector_tht:PINHEADER_2.54MM_1x4)
      (libsource (lib connector) (part J_GEN_4PIN-1COLX4ROW))
      (sheetpath (names /) (tstamps /))
      (tstamp 5B1549CE))
    (comp (ref R25)
      (value 0R)
      (footprint discrete_smt:RESC1608X50N_0603_WAVEPAD)
      (libsource (lib passive) (part R))
      (sheetpath (names /) (tstamps /))
      (tstamp 5B1549E6))
    (comp (ref R27)
      (value 0R)
      (footprint discrete_smt:RESC1608X50N_0603_WAVEPAD)
      (libsource (lib passive) (part R))
      (sheetpath (names /) (tstamps /))
      (tstamp 5B1549ED))
    (comp (ref R26)
      (value 0R)
      (footprint discrete_smt:RESC1608X50N_0603_WAVEPAD)
      (libsource (lib passive) (part R))
      (sheetpath (names /) (tstamps /))
      (tstamp 5B1549F8))
    (comp (ref R28)
      (value 0R)
      (footprint discrete_smt:RESC1608X50N_0603_WAVEPAD)
      (libsource (lib passive) (part R))
      (sheetpath (names /) (tstamps /))
      (tstamp 5B1549FF))
    (comp (ref J8)
      (value J_GEN_4PIN-1COLX4ROW)
      (footprint connector_tht:PINHEADER_2.54MM_1x4)
      (libsource (lib connector) (part J_GEN_4PIN-1COLX4ROW))
      (sheetpath (names /) (tstamps /))
      (tstamp 5B154A1A))
    (comp (ref R29)
      (value 0R)
      (footprint discrete_smt:RESC1608X50N_0603_WAVEPAD)
      (libsource (lib passive) (part R))
      (sheetpath (names /) (tstamps /))
      (tstamp 5B154A32))
    (comp (ref R31)
      (value 0R)
      (footprint discrete_smt:RESC1608X50N_0603_WAVEPAD)
      (libsource (lib passive) (part R))
      (sheetpath (names /) (tstamps /))
      (tstamp 5B154A39))
    (comp (ref R30)
      (value 0R)
      (footprint discrete_smt:RESC1608X50N_0603_WAVEPAD)
      (libsource (lib passive) (part R))
      (sheetpath (names /) (tstamps /))
      (tstamp 5B154A44))
    (comp (ref R32)
      (value 0R)
      (footprint discrete_smt:RESC1608X50N_0603_WAVEPAD)
      (libsource (lib passive) (part R))
      (sheetpath (names /) (tstamps /))
      (tstamp 5B154A4B))
    (comp (ref J4)
      (value J_GEN_4PIN-1COLX5ROW)
      (footprint connector_tht:PINHEADER_2.54MM_1x5)
      (libsource (lib connector) (part J_GEN_4PIN-1COLX5ROW))
      (sheetpath (names /) (tstamps /))
      (tstamp 5B2C51D1))
    (comp (ref R34)
      (value 220R)
      (footprint discrete_smt:RESC1608X50N_0603_WAVEPAD)
      (libsource (lib passive) (part R))
      (sheetpath (names /) (tstamps /))
      (tstamp 5B44F57D))
    (comp (ref R33)
      (value 220R)
      (footprint discrete_smt:RESC1608X50N_0603_WAVEPAD)
      (libsource (lib passive) (part R))
      (sheetpath (names /) (tstamps /))
      (tstamp 5B650A2B))
    (comp (ref U4)
      (value U_PWR_LINREG_TLV73333)
      (footprint ic_smt:SOT-23-5_GENERIC)
      (libsource (lib ic) (part U_PWR_LINREG_TLV73333))
      (sheetpath (names /) (tstamps /))
      (tstamp 5B79571B))
    (comp (ref C11)
      (value C_NP)
      (footprint discrete_smt:CAPC1608X95N_0603_IPC-B)
      (libsource (lib passive) (part C_NP))
      (sheetpath (names /) (tstamps /))
      (tstamp 5B7E15D5))
    (comp (ref C12)
      (value C_NP)
      (footprint discrete_smt:CAPC1608X95N_0603_IPC-B)
      (libsource (lib passive) (part C_NP))
      (sheetpath (names /) (tstamps /))
      (tstamp 5B7E1837))
    (comp (ref R35)
      (value 3k3)
      (footprint discrete_smt:RESC1608X50N_0603_WAVEPAD)
      (libsource (lib passive) (part R))
      (sheetpath (names /) (tstamps /))
      (tstamp 5B92C621))
    (comp (ref R36)
      (value 3k3)
      (footprint discrete_smt:RESC1608X50N_0603_WAVEPAD)
      (libsource (lib passive) (part R))
      (sheetpath (names /) (tstamps /))
      (tstamp 5B94016E))
    (comp (ref R37)
      (value 3k3)
      (footprint discrete_smt:RESC1608X50N_0603_WAVEPAD)
      (libsource (lib passive) (part R))
      (sheetpath (names /) (tstamps /))
      (tstamp 5B953AC4))
    (comp (ref R38)
      (value 3k3)
      (footprint discrete_smt:RESC1608X50N_0603_WAVEPAD)
      (libsource (lib passive) (part R))
      (sheetpath (names /) (tstamps /))
      (tstamp 5B967421))
    (comp (ref R40)
      (value 220R)
      (footprint discrete_smt:RESC1608X50N_0603_WAVEPAD)
      (libsource (lib passive) (part R))
      (sheetpath (names /) (tstamps /))
      (tstamp 5BA92CDF))
    (comp (ref R39)
      (value 220R)
      (footprint discrete_smt:RESC1608X50N_0603_WAVEPAD)
      (libsource (lib passive) (part R))
      (sheetpath (names /) (tstamps /))
      (tstamp 5BA92CE6))
    (comp (ref TP3)
      (value TESTPOINT)
      (footprint misc:TESTPOINT_RND_1mm_SingleSide)
      (libsource (lib misc) (part TESTPOINT))
      (sheetpath (names /) (tstamps /))
      (tstamp 5AFBFFAE))
    (comp (ref TP1)
      (value TESTPOINT)
      (footprint misc:TESTPOINT_RND_1mm_SingleSide)
      (libsource (lib misc) (part TESTPOINT))
      (sheetpath (names /) (tstamps /))
      (tstamp 5AFD6F9A))
    (comp (ref TP2)
      (value TESTPOINT)
      (footprint misc:TESTPOINT_RND_1mm_SingleSide)
      (libsource (lib misc) (part TESTPOINT))
      (sheetpath (names /) (tstamps /))
      (tstamp 5AFD70BB))
    (comp (ref U5)
      (value U_CTRL_TMP75AIDR)
      (footprint ic_smt:SOIC8P127_490X600X175L83X42N)
      (libsource (lib ic) (part U_CTRL_TMP75AIDR))
      (sheetpath (names /) (tstamps /))
      (tstamp 5B187FA7))
    (comp (ref J13)
      (value J_GEN_4PIN-1COLX4ROW)
      (footprint connector_tht:PINHEADER_2.54MM_1x4)
      (libsource (lib connector) (part J_GEN_4PIN-1COLX4ROW))
      (sheetpath (names /) (tstamps /))
      (tstamp 5B189616))
    (comp (ref R53)
      (value 0R)
      (footprint discrete_smt:RESC1608X50N_0603_WAVEPAD)
      (libsource (lib passive) (part R))
      (sheetpath (names /) (tstamps /))
      (tstamp 5B4F95EE))
    (comp (ref R57)
      (value 0R)
      (footprint discrete_smt:RESC1608X50N_0603_WAVEPAD)
      (libsource (lib passive) (part R))
      (sheetpath (names /) (tstamps /))
      (tstamp 5B6CCA78))
    (comp (ref R61)
      (value 0R)
      (footprint discrete_smt:RESC1608X50N_0603_WAVEPAD)
      (libsource (lib passive) (part R))
      (sheetpath (names /) (tstamps /))
      (tstamp 5B6E87FE))
    (comp (ref R54)
      (value 0R)
      (footprint discrete_smt:RESC1608X50N_0603_WAVEPAD)
      (libsource (lib passive) (part R))
      (sheetpath (names /) (tstamps /))
      (tstamp 5B70459F))
    (comp (ref R58)
      (value 0R)
      (footprint discrete_smt:RESC1608X50N_0603_WAVEPAD)
      (libsource (lib passive) (part R))
      (sheetpath (names /) (tstamps /))
      (tstamp 5B72032D))
    (comp (ref R62)
      (value 0R)
      (footprint discrete_smt:RESC1608X50N_0603_WAVEPAD)
      (libsource (lib passive) (part R))
      (sheetpath (names /) (tstamps /))
      (tstamp 5B73C0B4))
    (comp (ref C15)
      (value 100nF)
      (footprint discrete_smt:CAPC1005X55_0402_IPC-B)
      (libsource (lib passive) (part C_NP))
      (sheetpath (names /) (tstamps /))
      (tstamp 5BA2DA49))
    (comp (ref U6)
      (value U_CTRL_TMP75AIDR)
      (footprint ic_smt:SOIC8P127_490X600X175L83X42N)
      (libsource (lib ic) (part U_CTRL_TMP75AIDR))
      (sheetpath (names /) (tstamps /))
      (tstamp 5BA811DA))
    (comp (ref J14)
      (value J_GEN_4PIN-1COLX4ROW)
      (footprint connector_tht:PINHEADER_2.54MM_1x4)
      (libsource (lib connector) (part J_GEN_4PIN-1COLX4ROW))
      (sheetpath (names /) (tstamps /))
      (tstamp 5BA811E1))
    (comp (ref R55)
      (value 0R)
      (footprint discrete_smt:RESC1608X50N_0603_WAVEPAD)
      (libsource (lib passive) (part R))
      (sheetpath (names /) (tstamps /))
      (tstamp 5BA811F2))
    (comp (ref R59)
      (value 0R)
      (footprint discrete_smt:RESC1608X50N_0603_WAVEPAD)
      (libsource (lib passive) (part R))
      (sheetpath (names /) (tstamps /))
      (tstamp 5BA811F9))
    (comp (ref R63)
      (value 0R)
      (footprint discrete_smt:RESC1608X50N_0603_WAVEPAD)
      (libsource (lib passive) (part R))
      (sheetpath (names /) (tstamps /))
      (tstamp 5BA81200))
    (comp (ref R56)
      (value 0R)
      (footprint discrete_smt:RESC1608X50N_0603_WAVEPAD)
      (libsource (lib passive) (part R))
      (sheetpath (names /) (tstamps /))
      (tstamp 5BA81207))
    (comp (ref R60)
      (value 0R)
      (footprint discrete_smt:RESC1608X50N_0603_WAVEPAD)
      (libsource (lib passive) (part R))
      (sheetpath (names /) (tstamps /))
      (tstamp 5BA8120E))
    (comp (ref R64)
      (value 0R)
      (footprint discrete_smt:RESC1608X50N_0603_WAVEPAD)
      (libsource (lib passive) (part R))
      (sheetpath (names /) (tstamps /))
      (tstamp 5BA81215))
    (comp (ref C16)
      (value 100nF)
      (footprint discrete_smt:CAPC1005X55_0402_IPC-B)
      (libsource (lib passive) (part C_NP))
      (sheetpath (names /) (tstamps /))
      (tstamp 5BA8123C))
    (comp (ref U1)
      (value U_CTRL_TMP75AIDR)
      (footprint ic_smt:SOIC8P127_490X600X175L83X42N)
      (libsource (lib ic) (part U_CTRL_TMP75AIDR))
      (sheetpath (names /) (tstamps /))
      (tstamp 5BB6B27D))
    (comp (ref J11)
      (value J_GEN_4PIN-1COLX4ROW)
      (footprint connector_tht:PINHEADER_2.54MM_1x4)
      (libsource (lib connector) (part J_GEN_4PIN-1COLX4ROW))
      (sheetpath (names /) (tstamps /))
      (tstamp 5BB6B284))
    (comp (ref R41)
      (value 0R)
      (footprint discrete_smt:RESC1608X50N_0603_WAVEPAD)
      (libsource (lib passive) (part R))
      (sheetpath (names /) (tstamps /))
      (tstamp 5BB6B295))
    (comp (ref R45)
      (value 0R)
      (footprint discrete_smt:RESC1608X50N_0603_WAVEPAD)
      (libsource (lib passive) (part R))
      (sheetpath (names /) (tstamps /))
      (tstamp 5BB6B29C))
    (comp (ref R49)
      (value 0R)
      (footprint discrete_smt:RESC1608X50N_0603_WAVEPAD)
      (libsource (lib passive) (part R))
      (sheetpath (names /) (tstamps /))
      (tstamp 5BB6B2A3))
    (comp (ref R42)
      (value 0R)
      (footprint discrete_smt:RESC1608X50N_0603_WAVEPAD)
      (libsource (lib passive) (part R))
      (sheetpath (names /) (tstamps /))
      (tstamp 5BB6B2AA))
    (comp (ref R46)
      (value 0R)
      (footprint discrete_smt:RESC1608X50N_0603_WAVEPAD)
      (libsource (lib passive) (part R))
      (sheetpath (names /) (tstamps /))
      (tstamp 5BB6B2B1))
    (comp (ref R50)
      (value 0R)
      (footprint discrete_smt:RESC1608X50N_0603_WAVEPAD)
      (libsource (lib passive) (part R))
      (sheetpath (names /) (tstamps /))
      (tstamp 5BB6B2B8))
    (comp (ref C13)
      (value 100nF)
      (footprint discrete_smt:CAPC1005X55_0402_IPC-B)
      (libsource (lib passive) (part C_NP))
      (sheetpath (names /) (tstamps /))
      (tstamp 5BB6B2DF))
    (comp (ref U3)
      (value U_CTRL_TMP75AIDR)
      (footprint ic_smt:SOIC8P127_490X600X175L83X42N)
      (libsource (lib ic) (part U_CTRL_TMP75AIDR))
      (sheetpath (names /) (tstamps /))
      (tstamp 5BCD96FE))
    (comp (ref J12)
      (value J_GEN_4PIN-1COLX4ROW)
      (footprint connector_tht:PINHEADER_2.54MM_1x4)
      (libsource (lib connector) (part J_GEN_4PIN-1COLX4ROW))
      (sheetpath (names /) (tstamps /))
      (tstamp 5BCD9705))
    (comp (ref R43)
      (value 0R)
      (footprint discrete_smt:RESC1608X50N_0603_WAVEPAD)
      (libsource (lib passive) (part R))
      (sheetpath (names /) (tstamps /))
      (tstamp 5BCD9716))
    (comp (ref R47)
      (value 0R)
      (footprint discrete_smt:RESC1608X50N_0603_WAVEPAD)
      (libsource (lib passive) (part R))
      (sheetpath (names /) (tstamps /))
      (tstamp 5BCD971D))
    (comp (ref R51)
      (value 0R)
      (footprint discrete_smt:RESC1608X50N_0603_WAVEPAD)
      (libsource (lib passive) (part R))
      (sheetpath (names /) (tstamps /))
      (tstamp 5BCD9724))
    (comp (ref R44)
      (value 0R)
      (footprint discrete_smt:RESC1608X50N_0603_WAVEPAD)
      (libsource (lib passive) (part R))
      (sheetpath (names /) (tstamps /))
      (tstamp 5BCD972B))
    (comp (ref R48)
      (value 0R)
      (footprint discrete_smt:RESC1608X50N_0603_WAVEPAD)
      (libsource (lib passive) (part R))
      (sheetpath (names /) (tstamps /))
      (tstamp 5BCD9732))
    (comp (ref R52)
      (value 0R)
      (footprint discrete_smt:RESC1608X50N_0603_WAVEPAD)
      (libsource (lib passive) (part R))
      (sheetpath (names /) (tstamps /))
      (tstamp 5BCD9739))
    (comp (ref C14)
      (value 100nF)
      (footprint discrete_smt:CAPC1005X55_0402_IPC-B)
      (libsource (lib passive) (part C_NP))
      (sheetpath (names /) (tstamps /))
      (tstamp 5BCD9760))
    (comp (ref U7)
      (value U_CTRL_TMP75AIDR)
      (footprint ic_smt:SOIC8P127_490X600X175L83X42N)
      (libsource (lib ic) (part U_CTRL_TMP75AIDR))
      (sheetpath (names /) (tstamps /))
      (tstamp 5B10DA6F))
    (comp (ref J15)
      (value J_GEN_4PIN-1COLX4ROW)
      (footprint connector_tht:PINHEADER_2.54MM_1x4)
      (libsource (lib connector) (part J_GEN_4PIN-1COLX4ROW))
      (sheetpath (names /) (tstamps /))
      (tstamp 5B10DA76))
    (comp (ref R65)
      (value 0R)
      (footprint discrete_smt:RESC1608X50N_0603_WAVEPAD)
      (libsource (lib passive) (part R))
      (sheetpath (names /) (tstamps /))
      (tstamp 5B10DA87))
    (comp (ref R67)
      (value 0R)
      (footprint discrete_smt:RESC1608X50N_0603_WAVEPAD)
      (libsource (lib passive) (part R))
      (sheetpath (names /) (tstamps /))
      (tstamp 5B10DA8E))
    (comp (ref R69)
      (value 0R)
      (footprint discrete_smt:RESC1608X50N_0603_WAVEPAD)
      (libsource (lib passive) (part R))
      (sheetpath (names /) (tstamps /))
      (tstamp 5B10DA95))
    (comp (ref R66)
      (value 0R)
      (footprint discrete_smt:RESC1608X50N_0603_WAVEPAD)
      (libsource (lib passive) (part R))
      (sheetpath (names /) (tstamps /))
      (tstamp 5B10DA9C))
    (comp (ref R68)
      (value 0R)
      (footprint discrete_smt:RESC1608X50N_0603_WAVEPAD)
      (libsource (lib passive) (part R))
      (sheetpath (names /) (tstamps /))
      (tstamp 5B10DAA3))
    (comp (ref R70)
      (value 0R)
      (footprint discrete_smt:RESC1608X50N_0603_WAVEPAD)
      (libsource (lib passive) (part R))
      (sheetpath (names /) (tstamps /))
      (tstamp 5B10DAAA))
    (comp (ref C17)
      (value 100nF)
      (footprint discrete_smt:CAPC1005X55_0402_IPC-B)
      (libsource (lib passive) (part C_NP))
      (sheetpath (names /) (tstamps /))
      (tstamp 5B10DAD1))
    (comp (ref MTG1)
      (value MTG_HOLE)
      (footprint misc:MTGP600H320)
      (libsource (lib misc) (part MTG_HOLE))
      (sheetpath (names /) (tstamps /))
      (tstamp 5B148D0F))
    (comp (ref MTG2)
      (value MTG_HOLE)
      (footprint misc:MTGP600H320)
      (libsource (lib misc) (part MTG_HOLE))
      (sheetpath (names /) (tstamps /))
      (tstamp 5B148EFD))
    (comp (ref MTG3)
      (value MTG_HOLE)
      (footprint misc:MTGP600H320)
      (libsource (lib misc) (part MTG_HOLE))
      (sheetpath (names /) (tstamps /))
      (tstamp 5B18200E))
    (comp (ref MTG4)
      (value MTG_HOLE)
      (footprint misc:MTGP600H320)
      (libsource (lib misc) (part MTG_HOLE))
      (sheetpath (names /) (tstamps /))
      (tstamp 5B1BB116))
    (comp (ref MTG5)
      (value MTG_HOLE)
      (footprint misc:MTGP600H320)
      (libsource (lib misc) (part MTG_HOLE))
      (sheetpath (names /) (tstamps /))
      (tstamp 5B3510D3))
    (comp (ref MTG6)
      (value MTG_HOLE)
      (footprint misc:MTGP600H320)
      (libsource (lib misc) (part MTG_HOLE))
      (sheetpath (names /) (tstamps /))
      (tstamp 5B3510DA)))
  (libparts
    (libpart (lib passive) (part C_NP)
      (fields
        (field (name Reference) C)
        (field (name Value) C_NP))
      (pins
        (pin (num 1) (name 1) (type passive))
        (pin (num 2) (name 2) (type passive))))
    (libpart (lib active) (part D)
      (fields
        (field (name Reference) D)
        (field (name Value) D))
      (pins
        (pin (num A) (name A) (type passive))
        (pin (num C) (name C) (type passive))))
    (libpart (lib connector) (part J_GEN_4PIN-1COLX4ROW)
      (fields
        (field (name Reference) J)
        (field (name Value) J_GEN_4PIN-1COLX4ROW))
      (pins
        (pin (num 1) (name 1) (type passive))
        (pin (num 2) (name 2) (type passive))
        (pin (num 3) (name 3) (type passive))
        (pin (num 4) (name 4) (type passive))))
    (libpart (lib connector) (part J_GEN_4PIN-1COLX5ROW)
      (fields
        (field (name Reference) J)
        (field (name Value) J_GEN_4PIN-1COLX5ROW))
      (pins
        (pin (num 1) (name 1) (type passive))
        (pin (num 2) (name 2) (type passive))
        (pin (num 3) (name 3) (type passive))
        (pin (num 4) (name 4) (type passive))
        (pin (num 5) (name 5) (type passive))))
    (libpart (lib connector) (part J_STD_ATX-PCIEX6)
      (fields
        (field (name Reference) J)
        (field (name Value) J_STD_ATX-PCIEX6))
      (pins
        (pin (num 1) (name +12V) (type input))
        (pin (num 2) (name +12V) (type input))
        (pin (num 3) (name +12V) (type input))
        (pin (num 4) (name GND) (type input))
        (pin (num 5) (name SNS) (type input))
        (pin (num 6) (name GND) (type input))))
    (libpart (lib connector) (part J_STD_FAN_4PIN)
      (fields
        (field (name Reference) J)
        (field (name Value) J_STD_FAN_4PIN))
      (pins
        (pin (num 1) (name GND) (type input))
        (pin (num 2) (name V_12V) (type input))
        (pin (num 3) (name SENSE) (type input))
        (pin (num 4) (name CONTROL) (type input))))
    (libpart (lib connector) (part J_STD_USB2.0_TYPE-B)
      (fields
        (field (name Reference) J)
        (field (name Value) J_STD_USB2.0_TYPE-B))
      (pins
        (pin (num 1) (name VCC) (type input))
        (pin (num 2) (name D-) (type input))
        (pin (num 3) (name D+) (type input))
        (pin (num 4) (name GND) (type input))
        (pin (num S1) (name S1) (type input))
        (pin (num S2) (name S2) (type input))))
    (libpart (lib misc) (part MTG_HOLE)
      (fields
        (field (name Reference) MTG)
        (field (name Value) MTG_HOLE))
      (pins
        (pin (num 1) (name 1) (type passive))))
    (libpart (lib active) (part NFET)
      (fields
        (field (name Reference) Q)
        (field (name Value) NFET))
      (pins
        (pin (num D) (name D) (type input))
        (pin (num G) (name G) (type input))
        (pin (num S) (name S) (type input))))
    (libpart (lib passive) (part R)
      (fields
        (field (name Reference) R)
        (field (name Value) R))
      (pins
        (pin (num 1) (name 1) (type power_in))
        (pin (num 2) (name 2) (type power_in))))
    (libpart (lib misc) (part TESTPOINT)
      (fields
        (field (name Reference) TP)
        (field (name Value) TESTPOINT))
      (pins
        (pin (num 1) (name 1) (type passive))))
    (libpart (lib ic) (part U_CTRL_TMP75AIDR)
      (fields
        (field (name Reference) U)
        (field (name Value) U_CTRL_TMP75AIDR))
      (pins
        (pin (num 1) (name SDA) (type input))
        (pin (num 2) (name SCL) (type input))
        (pin (num 3) (name ALERT#) (type input))
        (pin (num 4) (name GND) (type power_in))
        (pin (num 5) (name A2) (type input))
        (pin (num 6) (name A1) (type input))
        (pin (num 7) (name A0) (type input))
        (pin (num 8) (name VCC) (type power_in))))
    (libpart (lib ic) (part U_MCU_NXP_LPC11U68JBD64)
      (fields
        (field (name Reference) U)
        (field (name Value) U_MCU_NXP_LPC11U68JBD64))
      (pins
        (pin (num 1) (name RTCXIN) (type input))
        (pin (num 2) (name RTCXOUT) (type input))
        (pin (num 3) (name GND_3) (type input))
        (pin (num 4) (name RESET#/PIO0_0) (type input))
        (pin (num 5) (name PIO0_1/CLKOUT/CT32B0_MAT2/USB_FTOGGLE) (type input))
        (pin (num 6) (name PIO1_7/U2_CTS#/CT16B1_CAP0) (type input))
        (pin (num 7) (name GND_7) (type input))
        (pin (num 8) (name PIO2_0/XTALIN) (type input))
        (pin (num 9) (name PIO2_1/XTALOUT) (type input))
        (pin (num 10) (name V_VDD_10) (type input))
        (pin (num 11) (name PIO2_5/U3_CTS#/SCT0_IN1) (type input))
        (pin (num 12) (name PIO0_20/CT16B1_CAP0/U2_RXD) (type input))
        (pin (num 13) (name PIO1_10/U2_RTS#/U2_SCLK/CT16B1_MAT0) (type input))
        (pin (num 14) (name PIO0_2/SSP0_SSEL/CT16B0_CAP0) (type input))
        (pin (num 15) (name PIO1_26/CT32B0_MAT2/U0_RXD) (type input))
        (pin (num 16) (name PIO2_2/U3_RTS#/U3_SCLK/SCT0_OUT1) (type input))
        (pin (num 17) (name PIO1_27/CT32B0_MAT3/U0_TXD/SSP1_SCK) (type input))
        (pin (num 18) (name PIO1_20/U0_DSR#/SSP1_SCK/CT16B0_MAT0) (type input))
        (pin (num 19) (name PIO0_3/USB_VBUS) (type input))
        (pin (num 20) (name PIO0_4/I2C0_SCL) (type input))
        (pin (num 21) (name PIO0_5/I2C0_SDA) (type input))
        (pin (num 22) (name PIO0_21/CT16B1_MAT0/SSP1_MOSI1) (type input))
        (pin (num 23) (name PIO1_23/CT16B1_MAT1/SSP1_SSEL/U2_TXD) (type input))
        (pin (num 24) (name PIO2_6/U1_RTS#/U1_SCLK/SCT0_OUT2) (type input))
        (pin (num 25) (name USB_DM) (type input))
        (pin (num 26) (name USB_DP) (type input))
        (pin (num 27) (name PIO2_7/SSP0_SCK/SCT0_OUT2) (type input))
        (pin (num 28) (name PIO1_24/CT32B0_MAT0/I2C1_SDA) (type input))
        (pin (num 29) (name PIO0_6/SSP0_SCK) (type input))
        (pin (num 30) (name PIO0_7/U0_CTS#/I2C1_SCL) (type input))
        (pin (num 31) (name PIO1_28/CT32B0_CAP0/U0_SCLK/U0_RTS#) (type input))
        (pin (num 32) (name PIO2_15/SCT1_IN3) (type input))
        (pin (num 33) (name PIO2_18/SCT1_OUT2) (type input))
        (pin (num 34) (name V_VDD_34) (type input))
        (pin (num 35) (name PIO1_21/U0_DCD#/SSP1_MISO/CT16B0_CAP2) (type input))
        (pin (num 36) (name PIO2_19/SCT1_OUT3) (type input))
        (pin (num 37) (name PIO0_8/SSP0_MISO/CT16B0_MAT0) (type input))
        (pin (num 38) (name PIO0_9/SSP0_MOSI/CT16B0_MAT1) (type input))
        (pin (num 39) (name SWCLK/PIO0_10/SSP0_SCK/CT16B0_MAT2) (type input))
        (pin (num 40) (name PIO0_22/ADC_11/CT16B1_CAP1/SSP1_MISO1) (type input))
        (pin (num 41) (name PIO1_29/SSP0_SCK/CT32B0_CAP2/U0_DTR#/ADC_10) (type input))
        (pin (num 42) (name TDI/PIO0_11/ADC_9/CT32B0_MAT3/U1_RTS#/U1_SCLK) (type input))
        (pin (num 43) (name TMS/PIO0_12/ADC_8/CT32B1_CAP0/U1_CTS#) (type input))
        (pin (num 44) (name PIO1_30/I2C1_SCL/SCT0_IN3) (type input))
        (pin (num 45) (name TDO/PIO0_13/ADC_7/CT32B1_MAT0/U1_RXD) (type input))
        (pin (num 46) (name TRST#/PIO0_14/ADC_6/CT32B1_MAT1/U1_TXD) (type input))
        (pin (num 47) (name VREFP) (type input))
        (pin (num 48) (name VREFN) (type input))
        (pin (num 49) (name PIO1_13/U1_CTS#/SCT0_OUT3) (type input))
        (pin (num 50) (name SWDIO/PIO0_15/ADC_3/CT32B1_MAT2) (type input))
        (pin (num 51) (name PIO0_16/WAKEUP/ADC_2/CT32B1_MAT3) (type input))
        (pin (num 52) (name PIO0_23/ADC_1/U0_RI#/SSP1_SSEL) (type input))
        (pin (num 53) (name V_VDDA) (type input))
        (pin (num 54) (name GND_A) (type input))
        (pin (num 55) (name PIO1_9/U0_CTS#/CT16B1_MAT1/ADC_0) (type input))
        (pin (num 56) (name PIO0_17/U0_RTS#/CT32B0_CAP0/U0_SCLK) (type input))
        (pin (num 57) (name GND_57) (type input))
        (pin (num 58) (name V_VDD_58) (type input))
        (pin (num 59) (name V_VDD_59) (type input))
        (pin (num 60) (name PIO0_18/U0_RXD/CT32B0_MAT0) (type input))
        (pin (num 61) (name PIO0_19/U0_TXD/CT32B0_MAT1) (type input))
        (pin (num 62) (name PIO1_0/CT32B1_MAT0/U2_TXD) (type input))
        (pin (num 63) (name V_VBAT) (type input))
        (pin (num 64) (name PIO1_19/U2_CTS#/SCT0_OUT0) (type input))))
    (libpart (lib ic) (part U_PWR_LINREG_TLV73333)
      (fields
        (field (name Reference) U)
        (field (name Value) U_PWR_LINREG_TLV73333))
      (pins
        (pin (num 1) (name IN) (type passive))
        (pin (num 2) (name EN) (type passive))
        (pin (num 3) (name GND) (type passive))
        (pin (num 4) (name NC) (type passive))
        (pin (num 5) (name OUT) (type passive))))
    (libpart (lib passive) (part XTAL_4PIN)
      (fields
        (field (name Reference) Q)
        (field (name Value) XTAL_4PIN))
      (pins
        (pin (num 1) (name 1) (type passive))
        (pin (num 2) (name 2) (type passive))
        (pin (num 3) (name 3) (type passive))
        (pin (num 4) (name 4) (type passive)))))
  (libraries
    (library (logical active)
      (uri D:/kicadlib_dm/symbol/active.lib))
    (library (logical connector)
      (uri D:/kicadlib_dm/symbol/connector.lib))
    (library (logical ic)
      (uri D:/kicadlib_dm/symbol/ic.lib))
    (library (logical misc)
      (uri D:/kicadlib_dm/symbol/misc.lib))
    (library (logical passive)
      (uri D:/kicadlib_dm/symbol/passive.lib)))
  (nets
    (net (code 1) (name "Net-(U5-Pad3)")
      (node (ref U5) (pin 3)))
    (net (code 2) (name "Net-(J13-Pad2)")
      (node (ref J13) (pin 2))
      (node (ref U5) (pin 1)))
    (net (code 3) (name "Net-(R61-Pad1)")
      (node (ref R61) (pin 1))
      (node (ref R62) (pin 2))
      (node (ref U5) (pin 5)))
    (net (code 4) (name "Net-(J13-Pad3)")
      (node (ref U5) (pin 2))
      (node (ref J13) (pin 3)))
    (net (code 5) (name GND)
      (node (ref U4) (pin 3))
      (node (ref C5) (pin 1))
      (node (ref MTG5) (pin 1))
      (node (ref C6) (pin 1))
      (node (ref J8) (pin 4))
      (node (ref C10) (pin 1))
      (node (ref J6) (pin 4))
      (node (ref C9) (pin 1))
      (node (ref C7) (pin 1))
      (node (ref C11) (pin 1))
      (node (ref J4) (pin 5))
      (node (ref C12) (pin 1))
      (node (ref MTG1) (pin 1))
      (node (ref MTG2) (pin 1))
      (node (ref MTG3) (pin 1))
      (node (ref MTG4) (pin 1))
      (node (ref R6) (pin 2))
      (node (ref C3) (pin 1))
      (node (ref MTG6) (pin 1))
      (node (ref C4) (pin 1))
      (node (ref Q2) (pin S))
      (node (ref U2) (pin 3))
      (node (ref U2) (pin 7))
      (node (ref J9) (pin S2))
      (node (ref J9) (pin S1))
      (node (ref J9) (pin 4))
      (node (ref U2) (pin 54))
      (node (ref C1) (pin 1))
      (node (ref J10) (pin 4))
      (node (ref J10) (pin 6))
      (node (ref U2) (pin 57))
      (node (ref U2) (pin 48))
      (node (ref Q1) (pin 2))
      (node (ref C8) (pin 1))
      (node (ref C2) (pin 1))
      (node (ref Q1) (pin 4))
      (node (ref R8) (pin 2))
      (node (ref R10) (pin 2))
      (node (ref TP2) (pin 1))
      (node (ref J5) (pin 4))
      (node (ref Q3) (pin S))
      (node (ref J7) (pin 4))
      (node (ref Q4) (pin S)))
    (net (code 6) (name "Net-(C15-Pad2)")
      (node (ref J13) (pin 1))
      (node (ref C15) (pin 2))
      (node (ref R61) (pin 2))
      (node (ref R57) (pin 2))
      (node (ref R53) (pin 2))
      (node (ref U5) (pin 8)))
    (net (code 7) (name I2C0_SCL)
      (node (ref R18) (pin 1))
      (node (ref R30) (pin 1))
      (node (ref R26) (pin 1))
      (node (ref U2) (pin 20))
      (node (ref R36) (pin 1))
      (node (ref R22) (pin 1)))
    (net (code 8) (name I2C0_SDA)
      (node (ref R29) (pin 1))
      (node (ref R25) (pin 1))
      (node (ref R21) (pin 1))
      (node (ref R17) (pin 1))
      (node (ref R35) (pin 1))
      (node (ref U2) (pin 21)))
    (net (code 9) (name V_3V3)
      (node (ref U2) (pin 53))
      (node (ref U2) (pin 47))
      (node (ref U2) (pin 63))
      (node (ref U2) (pin 34))
      (node (ref C3) (pin 2))
      (node (ref U2) (pin 10))
      (node (ref C4) (pin 2))
      (node (ref J5) (pin 1))
      (node (ref R1) (pin 2))
      (node (ref U2) (pin 59))
      (node (ref U2) (pin 58))
      (node (ref J7) (pin 1))
      (node (ref C12) (pin 2))
      (node (ref J4) (pin 1))
      (node (ref R37) (pin 2))
      (node (ref R38) (pin 2))
      (node (ref R36) (pin 2))
      (node (ref R35) (pin 2))
      (node (ref J8) (pin 1))
      (node (ref R34) (pin 2))
      (node (ref C10) (pin 2))
      (node (ref C9) (pin 2))
      (node (ref J6) (pin 1))
      (node (ref C7) (pin 2))
      (node (ref C6) (pin 2))
      (node (ref C5) (pin 2))
      (node (ref R33) (pin 2))
      (node (ref U4) (pin 5)))
    (net (code 10) (name I2C1_SCL)
      (node (ref R24) (pin 1))
      (node (ref U2) (pin 30))
      (node (ref R28) (pin 1))
      (node (ref R32) (pin 1))
      (node (ref R20) (pin 1))
      (node (ref R38) (pin 1)))
    (net (code 11) (name "Net-(R39-Pad1)")
      (node (ref U2) (pin 15))
      (node (ref R39) (pin 1)))
    (net (code 12) (name "Net-(R33-Pad1)")
      (node (ref R39) (pin 2))
      (node (ref R33) (pin 1)))
    (net (code 13) (name "Net-(R34-Pad1)")
      (node (ref R40) (pin 2))
      (node (ref R34) (pin 1)))
    (net (code 14) (name "Net-(U6-Pad3)")
      (node (ref U6) (pin 3)))
    (net (code 15) (name "Net-(J14-Pad2)")
      (node (ref J14) (pin 2))
      (node (ref U6) (pin 1)))
    (net (code 16) (name "Net-(R63-Pad1)")
      (node (ref R63) (pin 1))
      (node (ref R64) (pin 2))
      (node (ref U6) (pin 5)))
    (net (code 17) (name "Net-(J14-Pad3)")
      (node (ref J14) (pin 3))
      (node (ref U6) (pin 2)))
    (net (code 18) (name "Net-(C16-Pad2)")
      (node (ref U6) (pin 8))
      (node (ref R55) (pin 2))
      (node (ref R63) (pin 2))
      (node (ref R59) (pin 2))
      (node (ref J14) (pin 1))
      (node (ref C16) (pin 2)))
    (net (code 19) (name "Net-(R57-Pad1)")
      (node (ref U5) (pin 6))
      (node (ref R58) (pin 2))
      (node (ref R57) (pin 1)))
    (net (code 20) (name "Net-(R53-Pad1)")
      (node (ref R53) (pin 1))
      (node (ref U5) (pin 7))
      (node (ref R54) (pin 2)))
    (net (code 21) (name "Net-(C15-Pad1)")
      (node (ref J13) (pin 4))
      (node (ref U5) (pin 4))
      (node (ref R54) (pin 1))
      (node (ref R58) (pin 1))
      (node (ref R62) (pin 1))
      (node (ref C15) (pin 1)))
    (net (code 22) (name FAN1_PWM_HARD)
      (node (ref Q2) (pin G))
      (node (ref U2) (pin 60)))
    (net (code 23) (name /SWDCLK)
      (node (ref J4) (pin 3))
      (node (ref U2) (pin 39)))
    (net (code 24) (name /SWDIO)
      (node (ref J4) (pin 2))
      (node (ref U2) (pin 50)))
    (net (code 25) (name FAN3_PWM_HARD)
      (node (ref TP3) (pin 1))
      (node (ref U2) (pin 5))
      (node (ref Q4) (pin G)))
    (net (code 26) (name FAN2_PWM_SOFT)
      (node (ref R15) (pin 1))
      (node (ref U2) (pin 51)))
    (net (code 27) (name FAN3_PWM_SOFT)
      (node (ref U2) (pin 46))
      (node (ref R16) (pin 1)))
    (net (code 28) (name FAN2_PWM_HARD)
      (node (ref Q3) (pin G))
      (node (ref U2) (pin 61)))
    (net (code 29) (name FAN1_PWM_SOFT)
      (node (ref U2) (pin 62))
      (node (ref R14) (pin 1)))
    (net (code 30) (name V_5V0)
      (node (ref U4) (pin 1))
      (node (ref R2) (pin 1))
      (node (ref U4) (pin 2))
      (node (ref J9) (pin 1))
      (node (ref C11) (pin 2)))
    (net (code 31) (name I2C1_SDA)
      (node (ref R37) (pin 1))
      (node (ref R23) (pin 1))
      (node (ref R19) (pin 1))
      (node (ref R31) (pin 1))
      (node (ref R27) (pin 1))
      (node (ref U2) (pin 28)))
    (net (code 32) (name FAN3_SNS)
      (node (ref R10) (pin 1))
      (node (ref R9) (pin 1))
      (node (ref U2) (pin 14)))
    (net (code 33) (name FAN2_SNS)
      (node (ref R8) (pin 1))
      (node (ref U2) (pin 12))
      (node (ref R7) (pin 1)))
    (net (code 34) (name FAN1_SNS)
      (node (ref R6) (pin 1))
      (node (ref R5) (pin 1))
      (node (ref U2) (pin 35)))
    (net (code 35) (name "Net-(U4-Pad4)")
      (node (ref U4) (pin 4)))
    (net (code 36) (name "Net-(R40-Pad1)")
      (node (ref R40) (pin 1))
      (node (ref U2) (pin 17)))
    (net (code 37) (name "Net-(U7-Pad3)")
      (node (ref U7) (pin 3)))
    (net (code 38) (name "Net-(J15-Pad3)")
      (node (ref U7) (pin 2))
      (node (ref J15) (pin 3)))
    (net (code 39) (name "Net-(J15-Pad2)")
      (node (ref J15) (pin 2))
      (node (ref U7) (pin 1)))
    (net (code 40) (name /USBDR+)
      (node (ref J9) (pin 3))
      (node (ref R3) (pin 1)))
    (net (code 41) (name "Net-(R51-Pad1)")
      (node (ref R52) (pin 2))
      (node (ref R51) (pin 1))
      (node (ref U3) (pin 5)))
    (net (code 42) (name "Net-(R47-Pad1)")
      (node (ref R48) (pin 2))
      (node (ref R47) (pin 1))
      (node (ref U3) (pin 6)))
    (net (code 43) (name "Net-(R43-Pad1)")
      (node (ref R44) (pin 2))
      (node (ref R43) (pin 1))
      (node (ref U3) (pin 7)))
    (net (code 44) (name "Net-(C14-Pad2)")
      (node (ref R43) (pin 2))
      (node (ref C14) (pin 2))
      (node (ref U3) (pin 8))
      (node (ref R51) (pin 2))
      (node (ref R47) (pin 2))
      (node (ref J12) (pin 1)))
    (net (code 45) (name "Net-(C17-Pad2)")
      (node (ref R65) (pin 2))
      (node (ref R69) (pin 2))
      (node (ref R67) (pin 2))
      (node (ref C17) (pin 2))
      (node (ref U7) (pin 8))
      (node (ref J15) (pin 1)))
    (net (code 46) (name "Net-(R65-Pad1)")
      (node (ref R65) (pin 1))
      (node (ref R66) (pin 2))
      (node (ref U7) (pin 7)))
    (net (code 47) (name "Net-(R69-Pad1)")
      (node (ref R69) (pin 1))
      (node (ref U7) (pin 5))
      (node (ref R70) (pin 2)))
    (net (code 48) (name "Net-(C17-Pad1)")
      (node (ref R70) (pin 1))
      (node (ref J15) (pin 4))
      (node (ref R68) (pin 1))
      (node (ref R66) (pin 1))
      (node (ref U7) (pin 4))
      (node (ref C17) (pin 1)))
    (net (code 49) (name "Net-(R67-Pad1)")
      (node (ref U7) (pin 6))
      (node (ref R67) (pin 1))
      (node (ref R68) (pin 2)))
    (net (code 50) (name "Net-(U1-Pad3)")
      (node (ref U1) (pin 3)))
    (net (code 51) (name "Net-(J11-Pad2)")
      (node (ref U1) (pin 1))
      (node (ref J11) (pin 2)))
    (net (code 52) (name "Net-(R49-Pad1)")
      (node (ref R49) (pin 1))
      (node (ref R50) (pin 2))
      (node (ref U1) (pin 5)))
    (net (code 53) (name "Net-(J11-Pad3)")
      (node (ref J11) (pin 3))
      (node (ref U1) (pin 2)))
    (net (code 54) (name "Net-(C13-Pad2)")
      (node (ref R49) (pin 2))
      (node (ref J11) (pin 1))
      (node (ref U1) (pin 8))
      (node (ref C13) (pin 2))
      (node (ref R45) (pin 2))
      (node (ref R41) (pin 2)))
    (net (code 55) (name "Net-(R59-Pad1)")
      (node (ref R60) (pin 2))
      (node (ref U6) (pin 6))
      (node (ref R59) (pin 1)))
    (net (code 56) (name "Net-(R55-Pad1)")
      (node (ref R55) (pin 1))
      (node (ref U6) (pin 7))
      (node (ref R56) (pin 2)))
    (net (code 57) (name "Net-(C16-Pad1)")
      (node (ref R60) (pin 1))
      (node (ref J14) (pin 4))
      (node (ref C16) (pin 1))
      (node (ref U6) (pin 4))
      (node (ref R56) (pin 1))
      (node (ref R64) (pin 1)))
    (net (code 58) (name "Net-(U3-Pad3)")
      (node (ref U3) (pin 3)))
    (net (code 59) (name "Net-(J12-Pad2)")
      (node (ref J12) (pin 2))
      (node (ref U3) (pin 1)))
    (net (code 60) (name "Net-(J12-Pad3)")
      (node (ref J12) (pin 3))
      (node (ref U3) (pin 2)))
    (net (code 61) (name "Net-(C14-Pad1)")
      (node (ref C14) (pin 1))
      (node (ref R48) (pin 1))
      (node (ref R52) (pin 1))
      (node (ref U3) (pin 4))
      (node (ref J12) (pin 4))
      (node (ref R44) (pin 1)))
    (net (code 62) (name "Net-(R45-Pad1)")
      (node (ref R46) (pin 2))
      (node (ref U1) (pin 6))
      (node (ref R45) (pin 1)))
    (net (code 63) (name "Net-(R41-Pad1)")
      (node (ref R41) (pin 1))
      (node (ref U1) (pin 7))
      (node (ref R42) (pin 2)))
    (net (code 64) (name "Net-(C13-Pad1)")
      (node (ref R42) (pin 1))
      (node (ref U1) (pin 4))
      (node (ref C13) (pin 1))
      (node (ref J11) (pin 4))
      (node (ref R50) (pin 1))
      (node (ref R46) (pin 1)))
    (net (code 65) (name /USBD-)
      (node (ref U2) (pin 25))
      (node (ref R4) (pin 2)))
    (net (code 66) (name /USBDR-)
      (node (ref R4) (pin 1))
      (node (ref J9) (pin 2)))
    (net (code 67) (name /USBD+)
      (node (ref U2) (pin 26))
      (node (ref R3) (pin 2)))
    (net (code 68) (name "Net-(R2-Pad2)")
      (node (ref R2) (pin 2))
      (node (ref U2) (pin 19)))
    (net (code 69) (name /SW_G1)
      (node (ref J1) (pin 1))
      (node (ref Q2) (pin D))
      (node (ref D1) (pin A)))
    (net (code 70) (name V_12V0)
      (node (ref R11) (pin 2))
      (node (ref D2) (pin C))
      (node (ref J2) (pin 2))
      (node (ref J3) (pin 2))
      (node (ref R12) (pin 2))
      (node (ref D1) (pin C))
      (node (ref D3) (pin C))
      (node (ref J1) (pin 2))
      (node (ref R13) (pin 2))
      (node (ref J10) (pin 1))
      (node (ref J10) (pin 3))
      (node (ref J10) (pin 2)))
    (net (code 71) (name /RESET#)
      (node (ref C1) (pin 2))
      (node (ref R1) (pin 1))
      (node (ref TP1) (pin 1))
      (node (ref J4) (pin 4))
      (node (ref U2) (pin 4)))
    (net (code 72) (name "Net-(J10-Pad5)")
      (node (ref J10) (pin 5)))
    (net (code 73) (name "Net-(J1-Pad4)")
      (node (ref J1) (pin 4))
      (node (ref R14) (pin 2)))
    (net (code 74) (name "Net-(J1-Pad3)")
      (node (ref R11) (pin 1))
      (node (ref R5) (pin 2))
      (node (ref J1) (pin 3)))
    (net (code 75) (name "Net-(U2-Pad6)")
      (node (ref U2) (pin 6)))
    (net (code 76) (name "Net-(U2-Pad56)")
      (node (ref U2) (pin 56)))
    (net (code 77) (name "Net-(U2-Pad55)")
      (node (ref U2) (pin 55)))
    (net (code 78) (name "Net-(U2-Pad52)")
      (node (ref U2) (pin 52)))
    (net (code 79) (name "Net-(U2-Pad49)")
      (node (ref U2) (pin 49)))
    (net (code 80) (name "Net-(U2-Pad45)")
      (node (ref U2) (pin 45)))
    (net (code 81) (name "Net-(U2-Pad44)")
      (node (ref U2) (pin 44)))
    (net (code 82) (name "Net-(U2-Pad43)")
      (node (ref U2) (pin 43)))
    (net (code 83) (name "Net-(U2-Pad64)")
      (node (ref U2) (pin 64)))
    (net (code 84) (name "Net-(U2-Pad18)")
      (node (ref U2) (pin 18)))
    (net (code 85) (name "Net-(U2-Pad24)")
      (node (ref U2) (pin 24)))
    (net (code 86) (name "Net-(U2-Pad23)")
      (node (ref U2) (pin 23)))
    (net (code 87) (name "Net-(U2-Pad22)")
      (node (ref U2) (pin 22)))
    (net (code 88) (name "Net-(U2-Pad2)")
      (node (ref U2) (pin 2)))
    (net (code 89) (name "Net-(U2-Pad27)")
      (node (ref U2) (pin 27)))
    (net (code 90) (name "Net-(U2-Pad16)")
      (node (ref U2) (pin 16)))
    (net (code 91) (name "Net-(U2-Pad13)")
      (node (ref U2) (pin 13)))
    (net (code 92) (name "Net-(U2-Pad11)")
      (node (ref U2) (pin 11)))
    (net (code 93) (name "Net-(U2-Pad42)")
      (node (ref U2) (pin 42)))
    (net (code 94) (name "Net-(U2-Pad41)")
      (node (ref U2) (pin 41)))
    (net (code 95) (name "Net-(U2-Pad40)")
      (node (ref U2) (pin 40)))
    (net (code 96) (name "Net-(U2-Pad38)")
      (node (ref U2) (pin 38)))
    (net (code 97) (name "Net-(U2-Pad37)")
      (node (ref U2) (pin 37)))
    (net (code 98) (name "Net-(U2-Pad36)")
      (node (ref U2) (pin 36)))
    (net (code 99) (name "Net-(U2-Pad33)")
      (node (ref U2) (pin 33)))
    (net (code 100) (name "Net-(U2-Pad32)")
      (node (ref U2) (pin 32)))
    (net (code 101) (name "Net-(U2-Pad31)")
      (node (ref U2) (pin 31)))
    (net (code 102) (name "Net-(U2-Pad29)")
      (node (ref U2) (pin 29)))
    (net (code 103) (name "Net-(C2-Pad2)")
      (node (ref C2) (pin 2))
      (node (ref Q1) (pin 1))
      (node (ref U2) (pin 8)))
    (net (code 104) (name "Net-(C8-Pad2)")
      (node (ref C8) (pin 2))
      (node (ref Q1) (pin 3))
      (node (ref U2) (pin 9)))
    (net (code 105) (name /TMP2_SCL)
      (node (ref R22) (pin 2))
      (node (ref J6) (pin 3))
      (node (ref R24) (pin 2)))
    (net (code 106) (name /TMP2_SDA)
      (node (ref R23) (pin 2))
      (node (ref R21) (pin 2))
      (node (ref J6) (pin 2)))
    (net (code 107) (name /TMP1_SCL)
      (node (ref R18) (pin 2))
      (node (ref J5) (pin 3))
      (node (ref R20) (pin 2)))
    (net (code 108) (name /TMP1_SDA)
      (node (ref R17) (pin 2))
      (node (ref R19) (pin 2))
      (node (ref J5) (pin 2)))
    (net (code 109) (name /TMP4_SCL)
      (node (ref J8) (pin 3))
      (node (ref R32) (pin 2))
      (node (ref R30) (pin 2)))
    (net (code 110) (name /TMP4_SDA)
      (node (ref R29) (pin 2))
      (node (ref J8) (pin 2))
      (node (ref R31) (pin 2)))
    (net (code 111) (name /TMP3_SCL)
      (node (ref R26) (pin 2))
      (node (ref J7) (pin 3))
      (node (ref R28) (pin 2)))
    (net (code 112) (name /TMP3_SDA)
      (node (ref R27) (pin 2))
      (node (ref J7) (pin 2))
      (node (ref R25) (pin 2)))
    (net (code 113) (name "Net-(J2-Pad3)")
      (node (ref R12) (pin 1))
      (node (ref J2) (pin 3))
      (node (ref R7) (pin 2)))
    (net (code 114) (name /SW_G2)
      (node (ref D2) (pin A))
      (node (ref Q3) (pin D))
      (node (ref J2) (pin 1)))
    (net (code 115) (name "Net-(J2-Pad4)")
      (node (ref J2) (pin 4))
      (node (ref R15) (pin 2)))
    (net (code 116) (name "Net-(J3-Pad4)")
      (node (ref R16) (pin 2))
      (node (ref J3) (pin 4)))
    (net (code 117) (name /SW_G3)
      (node (ref J3) (pin 1))
      (node (ref D3) (pin A))
      (node (ref Q4) (pin D)))
    (net (code 118) (name "Net-(J3-Pad3)")
      (node (ref R13) (pin 1))
      (node (ref R9) (pin 2))
      (node (ref J3) (pin 3)))
    (net (code 119) (name "Net-(U2-Pad1)")
      (node (ref U2) (pin 1)))))