EESchema Schematic File Version 4
LIBS:usb_emb_ctrl-cache
EELAYER 26 0
EELAYER END
$Descr A3 16535 11693
encoding utf-8
Sheet 1 1
Title ""
Date ""
Rev ""
Comp ""
Comment1 ""
Comment2 ""
Comment3 ""
Comment4 ""
$EndDescr
$Comp
L ic:U_MCU_NXP_LPC11U68JBD64 U2
U 1 1 5AF502BF
P 3400 1700
F 0 "U2" H 5900 1850 50  0000 C CNN
F 1 "U_MCU_NXP_LPC11U68JBD64" H 3550 -2350 50  0000 L TNN
F 2 "ic_smt:QFP64P50_1200X1200X160L60X22HD" H 5500 1700 50  0001 C CNN
F 3 "" H 5500 1700 50  0001 C CNN
	1    3400 1700
	1    0    0    -1  
$EndComp
$Comp
L passive:XTAL_4PIN Q1
U 1 1 5AF5DD1C
P 2050 4450
F 0 "Q1" H 2050 4620 50  0000 C BNN
F 1 "XTAL_4PIN" H 2050 4280 50  0000 C TNN
F 2 "discrete_smt:OSCC320X250X70_TXC_7M" H 2050 4450 50  0001 C CNN
F 3 "" H 2050 4450 50  0001 C CNN
	1    2050 4450
	1    0    0    -1  
$EndComp
$Comp
L passive:C_NP C2
U 1 1 5AF5DE27
P 1550 4850
F 0 "C2" H 1610 4870 50  0000 L BNN
F 1 "18pF" H 1610 4830 50  0000 L TNN
F 2 "discrete_smt:CAPC1005X55_0402_IPC-B" H 1550 4850 50  0001 C CNN
F 3 "" H 1550 4850 50  0001 C CNN
	1    1550 4850
	0    -1   -1   0   
$EndComp
$Comp
L passive:C_NP C8
U 1 1 5AF5DF77
P 2550 4800
F 0 "C8" H 2610 4820 50  0000 L BNN
F 1 "18pF" H 2610 4780 50  0000 L TNN
F 2 "discrete_smt:CAPC1005X55_0402_IPC-B" H 2550 4800 50  0001 C CNN
F 3 "" H 2550 4800 50  0001 C CNN
	1    2550 4800
	0    -1   -1   0   
$EndComp
$Comp
L sch_power:GND #PWR03
U 1 1 5AF5E02F
P 1550 5000
F 0 "#PWR03" H 1550 4900 50  0001 C CNN
F 1 "GND" H 1550 4900 50  0000 C CNN
F 2 "" H 1550 5000 50  0001 C CNN
F 3 "" H 1550 5000 50  0001 C CNN
	1    1550 5000
	1    0    0    -1  
$EndComp
Wire Wire Line
	1550 5000 1550 4950
$Comp
L sch_power:GND #PWR014
U 1 1 5AF5E062
P 2550 5000
F 0 "#PWR014" H 2550 4900 50  0001 C CNN
F 1 "GND" H 2550 4900 50  0000 C CNN
F 2 "" H 2550 5000 50  0001 C CNN
F 3 "" H 2550 5000 50  0001 C CNN
	1    2550 5000
	1    0    0    -1  
$EndComp
Wire Wire Line
	2550 5000 2550 4900
Wire Wire Line
	1550 4750 1550 4500
Wire Wire Line
	1550 4500 1750 4500
Wire Wire Line
	2350 4400 2550 4400
Wire Wire Line
	2550 4400 2550 4700
Wire Wire Line
	3400 4200 1550 4200
Wire Wire Line
	1550 4200 1550 4500
Connection ~ 1550 4500
Wire Wire Line
	3400 4300 2550 4300
Wire Wire Line
	2550 4300 2550 4400
Connection ~ 2550 4400
$Comp
L sch_power:GND #PWR04
U 1 1 5AF5E415
P 1700 5000
F 0 "#PWR04" H 1700 4900 50  0001 C CNN
F 1 "GND" H 1700 4900 50  0000 C CNN
F 2 "" H 1700 5000 50  0001 C CNN
F 3 "" H 1700 5000 50  0001 C CNN
	1    1700 5000
	1    0    0    -1  
$EndComp
Wire Wire Line
	1750 4400 1700 4400
Wire Wire Line
	1700 4400 1700 5000
$Comp
L sch_power:GND #PWR012
U 1 1 5AF5E5CE
P 2400 5000
F 0 "#PWR012" H 2400 4900 50  0001 C CNN
F 1 "GND" H 2400 4900 50  0000 C CNN
F 2 "" H 2400 5000 50  0001 C CNN
F 3 "" H 2400 5000 50  0001 C CNN
	1    2400 5000
	1    0    0    -1  
$EndComp
Wire Wire Line
	2350 4500 2400 4500
Wire Wire Line
	2400 4500 2400 5000
$Comp
L sch_power:GND #PWR018
U 1 1 5AF5E7BF
P 3350 5650
F 0 "#PWR018" H 3350 5550 50  0001 C CNN
F 1 "GND" H 3350 5550 50  0000 C CNN
F 2 "" H 3350 5650 50  0001 C CNN
F 3 "" H 3350 5650 50  0001 C CNN
	1    3350 5650
	1    0    0    -1  
$EndComp
Wire Wire Line
	3400 5600 3350 5600
Wire Wire Line
	3350 5600 3350 5650
Wire Wire Line
	3400 5500 3350 5500
Wire Wire Line
	3350 5500 3350 5600
Connection ~ 3350 5600
Wire Wire Line
	3400 5400 3350 5400
Wire Wire Line
	3350 5400 3350 5500
Connection ~ 3350 5500
Wire Wire Line
	3400 5200 3350 5200
Wire Wire Line
	3350 5200 3350 5400
Connection ~ 3350 5400
$Comp
L sch_power:V_3V3 #PWR05
U 1 1 5AF5ED8A
P 1750 1600
F 0 "#PWR05" H 1750 1600 50  0001 C CNN
F 1 "V_3V3" H 1750 1750 50  0000 C CNN
F 2 "" H 1750 1600 50  0001 C CNN
F 3 "" H 1750 1600 50  0001 C CNN
	1    1750 1600
	1    0    0    -1  
$EndComp
Wire Wire Line
	3400 1700 3300 1700
Wire Wire Line
	3400 1850 3300 1850
Wire Wire Line
	3300 1850 3300 1700
Connection ~ 3300 1700
Wire Wire Line
	3400 1950 3300 1950
Wire Wire Line
	3300 1950 3300 1850
Connection ~ 3300 1850
Wire Wire Line
	3400 2050 3300 2050
Wire Wire Line
	3300 2050 3300 1950
Connection ~ 3300 1950
Wire Wire Line
	3400 2150 3300 2150
Wire Wire Line
	3300 2150 3300 2050
Connection ~ 3300 2050
Wire Wire Line
	3400 2350 3300 2350
Wire Wire Line
	3300 2350 3300 2150
Connection ~ 3300 2150
$Comp
L connector:J_STD_USB2.0_TYPE-B J9
U 1 1 5AF6252E
P 1850 3150
F 0 "J9" H 2250 3300 50  0000 C CNN
F 1 "J_STD_USB2.0_TYPE-B" H 2000 2500 50  0000 L CNN
F 2 "connector_tht:MOLEX_67068-7041_USB2.0-B" H 1850 3150 50  0001 C CNN
F 3 "" H 1850 3150 50  0001 C CNN
	1    1850 3150
	-1   0    0    -1  
$EndComp
$Comp
L sch_power:GND #PWR09
U 1 1 5AF63594
P 1950 3750
F 0 "#PWR09" H 1950 3650 50  0001 C CNN
F 1 "GND" H 1950 3650 50  0000 C CNN
F 2 "" H 1950 3750 50  0001 C CNN
F 3 "" H 1950 3750 50  0001 C CNN
	1    1950 3750
	1    0    0    -1  
$EndComp
Wire Wire Line
	1850 3650 1950 3650
Wire Wire Line
	1950 3650 1950 3750
$Comp
L sch_power:V_5V0 #PWR08
U 1 1 5AF63B95
P 1950 3050
F 0 "#PWR08" H 1950 3050 50  0001 C CNN
F 1 "V_5V0" H 1950 3200 50  0000 C CNN
F 2 "" H 1950 3050 50  0001 C CNN
F 3 "" H 1950 3050 50  0001 C CNN
	1    1950 3050
	1    0    0    -1  
$EndComp
Wire Wire Line
	1850 3150 1950 3150
Wire Wire Line
	1950 3150 1950 3050
Wire Wire Line
	3400 2750 3300 2750
Wire Wire Line
	3300 2750 3300 2350
Connection ~ 3300 2350
$Comp
L sch_power:GND #PWR017
U 1 1 5AF6588C
P 3300 2950
F 0 "#PWR017" H 3300 2850 50  0001 C CNN
F 1 "GND" H 3300 2850 50  0000 C CNN
F 2 "" H 3300 2950 50  0001 C CNN
F 3 "" H 3300 2950 50  0001 C CNN
	1    3300 2950
	1    0    0    -1  
$EndComp
Wire Wire Line
	3400 2850 3300 2850
Wire Wire Line
	3300 2850 3300 2950
$Comp
L sch_power:GND #PWR01
U 1 1 5AF66213
P 700 3750
F 0 "#PWR01" H 700 3650 50  0001 C CNN
F 1 "GND" H 700 3650 50  0000 C CNN
F 2 "" H 700 3750 50  0001 C CNN
F 3 "" H 700 3750 50  0001 C CNN
	1    700  3750
	1    0    0    -1  
$EndComp
Wire Wire Line
	700  3650 700  3750
Wire Wire Line
	1050 3650 950  3650
Wire Wire Line
	1050 3550 950  3550
Wire Wire Line
	950  3550 950  3650
Connection ~ 950  3650
Wire Wire Line
	950  3650 700  3650
$Comp
L passive:R R2
U 1 1 5AF67FE4
P 2250 3150
F 0 "R2" H 2360 3170 50  0000 L BNN
F 1 "0R" H 2360 3130 50  0000 L TNN
F 2 "discrete_smt:CAPC1608X95N_0603_IPC-B" H 2250 3150 50  0001 C CNN
F 3 "" H 2250 3150 50  0001 C CNN
	1    2250 3150
	1    0    0    -1  
$EndComp
Wire Wire Line
	1950 3150 2050 3150
Connection ~ 1950 3150
Wire Wire Line
	2450 3150 3400 3150
$Comp
L passive:R R3
U 1 1 5AF69672
P 2350 3350
F 0 "R3" H 2460 3370 50  0000 L BNN
F 1 "0R" H 2460 3330 50  0000 L TNN
F 2 "discrete_smt:CAPC1608X95N_0603_IPC-B" H 2350 3350 50  0001 C CNN
F 3 "" H 2350 3350 50  0001 C CNN
	1    2350 3350
	1    0    0    -1  
$EndComp
$Comp
L passive:R R4
U 1 1 5AF696A9
P 2700 3450
F 0 "R4" H 2810 3470 50  0000 L BNN
F 1 "0R" H 2810 3430 50  0000 L TNN
F 2 "discrete_smt:CAPC1608X95N_0603_IPC-B" H 2700 3450 50  0001 C CNN
F 3 "" H 2700 3450 50  0001 C CNN
	1    2700 3450
	1    0    0    -1  
$EndComp
Wire Wire Line
	1850 3350 2150 3350
Wire Wire Line
	1850 3450 2500 3450
Wire Wire Line
	2550 3350 3400 3350
Wire Wire Line
	2900 3450 3400 3450
$Comp
L passive:C_NP C4
U 1 1 5AF704A1
P 1950 2050
F 0 "C4" H 2010 2070 50  0000 L BNN
F 1 "100nF" H 2010 2030 50  0000 L TNN
F 2 "discrete_smt:CAPC1005X55_0402_IPC-B" H 1950 2050 50  0001 C CNN
F 3 "" H 1950 2050 50  0001 C CNN
	1    1950 2050
	0    -1   -1   0   
$EndComp
$Comp
L passive:C_NP C3
U 1 1 5AF710D7
P 1750 2050
F 0 "C3" H 1810 2070 50  0000 L BNN
F 1 "10uF" H 1810 2030 50  0000 L TNN
F 2 "discrete_smt:CAPC1608X95N_0603_IPC-B" H 1750 2050 50  0001 C CNN
F 3 "" H 1750 2050 50  0001 C CNN
	1    1750 2050
	0    -1   -1   0   
$EndComp
$Comp
L passive:C_NP C5
U 1 1 5AF72987
P 2150 2050
F 0 "C5" H 2210 2070 50  0000 L BNN
F 1 "100nF" H 2210 2030 50  0000 L TNN
F 2 "discrete_smt:CAPC1005X55_0402_IPC-B" H 2150 2050 50  0001 C CNN
F 3 "" H 2150 2050 50  0001 C CNN
	1    2150 2050
	0    -1   -1   0   
$EndComp
$Comp
L passive:C_NP C6
U 1 1 5AF735B8
P 2350 2050
F 0 "C6" H 2410 2070 50  0000 L BNN
F 1 "100nF" H 2410 2030 50  0000 L TNN
F 2 "discrete_smt:CAPC1005X55_0402_IPC-B" H 2350 2050 50  0001 C CNN
F 3 "" H 2350 2050 50  0001 C CNN
	1    2350 2050
	0    -1   -1   0   
$EndComp
$Comp
L passive:C_NP C7
U 1 1 5AF741E4
P 2550 2050
F 0 "C7" H 2610 2070 50  0000 L BNN
F 1 "100nF" H 2610 2030 50  0000 L TNN
F 2 "discrete_smt:CAPC1005X55_0402_IPC-B" H 2550 2050 50  0001 C CNN
F 3 "" H 2550 2050 50  0001 C CNN
	1    2550 2050
	0    -1   -1   0   
$EndComp
$Comp
L passive:C_NP C9
U 1 1 5AF74E15
P 2750 2050
F 0 "C9" H 2810 2070 50  0000 L BNN
F 1 "100nF" H 2810 2030 50  0000 L TNN
F 2 "discrete_smt:CAPC1005X55_0402_IPC-B" H 2750 2050 50  0001 C CNN
F 3 "" H 2750 2050 50  0001 C CNN
	1    2750 2050
	0    -1   -1   0   
$EndComp
$Comp
L passive:C_NP C10
U 1 1 5AF75A59
P 2950 2050
F 0 "C10" H 3010 2070 50  0000 L BNN
F 1 "100nF" H 3010 2030 50  0000 L TNN
F 2 "discrete_smt:CAPC1005X55_0402_IPC-B" H 2950 2050 50  0001 C CNN
F 3 "" H 2950 2050 50  0001 C CNN
	1    2950 2050
	0    -1   -1   0   
$EndComp
Wire Wire Line
	3300 1700 2950 1700
Wire Wire Line
	2950 1700 2950 1950
Wire Wire Line
	2950 1700 2750 1700
Wire Wire Line
	1750 1700 1750 1950
Connection ~ 2950 1700
Wire Wire Line
	1950 1950 1950 1700
Connection ~ 1950 1700
Wire Wire Line
	1950 1700 1750 1700
Wire Wire Line
	2150 1950 2150 1700
Connection ~ 2150 1700
Wire Wire Line
	2150 1700 1950 1700
Wire Wire Line
	2350 1950 2350 1700
Connection ~ 2350 1700
Wire Wire Line
	2350 1700 2150 1700
Wire Wire Line
	2550 1950 2550 1700
Connection ~ 2550 1700
Wire Wire Line
	2550 1700 2350 1700
Wire Wire Line
	2750 1950 2750 1700
Connection ~ 2750 1700
Wire Wire Line
	2750 1700 2550 1700
$Comp
L sch_power:GND #PWR06
U 1 1 5AF8764C
P 1750 2250
F 0 "#PWR06" H 1750 2150 50  0001 C CNN
F 1 "GND" H 1750 2150 50  0000 C CNN
F 2 "" H 1750 2250 50  0001 C CNN
F 3 "" H 1750 2250 50  0001 C CNN
	1    1750 2250
	1    0    0    -1  
$EndComp
Wire Wire Line
	1750 2150 1750 2250
$Comp
L sch_power:GND #PWR07
U 1 1 5AF8A010
P 1950 2250
F 0 "#PWR07" H 1950 2150 50  0001 C CNN
F 1 "GND" H 1950 2150 50  0000 C CNN
F 2 "" H 1950 2250 50  0001 C CNN
F 3 "" H 1950 2250 50  0001 C CNN
	1    1950 2250
	1    0    0    -1  
$EndComp
Wire Wire Line
	1950 2150 1950 2250
$Comp
L sch_power:GND #PWR010
U 1 1 5AF8B525
P 2150 2250
F 0 "#PWR010" H 2150 2150 50  0001 C CNN
F 1 "GND" H 2150 2150 50  0000 C CNN
F 2 "" H 2150 2250 50  0001 C CNN
F 3 "" H 2150 2250 50  0001 C CNN
	1    2150 2250
	1    0    0    -1  
$EndComp
Wire Wire Line
	2150 2150 2150 2250
$Comp
L sch_power:GND #PWR011
U 1 1 5AF8CAD9
P 2350 2250
F 0 "#PWR011" H 2350 2150 50  0001 C CNN
F 1 "GND" H 2350 2150 50  0000 C CNN
F 2 "" H 2350 2250 50  0001 C CNN
F 3 "" H 2350 2250 50  0001 C CNN
	1    2350 2250
	1    0    0    -1  
$EndComp
Wire Wire Line
	2350 2150 2350 2250
$Comp
L sch_power:GND #PWR013
U 1 1 5AF8E12C
P 2550 2250
F 0 "#PWR013" H 2550 2150 50  0001 C CNN
F 1 "GND" H 2550 2150 50  0000 C CNN
F 2 "" H 2550 2250 50  0001 C CNN
F 3 "" H 2550 2250 50  0001 C CNN
	1    2550 2250
	1    0    0    -1  
$EndComp
Wire Wire Line
	2550 2150 2550 2250
$Comp
L sch_power:GND #PWR015
U 1 1 5AF8F81B
P 2750 2250
F 0 "#PWR015" H 2750 2150 50  0001 C CNN
F 1 "GND" H 2750 2150 50  0000 C CNN
F 2 "" H 2750 2250 50  0001 C CNN
F 3 "" H 2750 2250 50  0001 C CNN
	1    2750 2250
	1    0    0    -1  
$EndComp
Wire Wire Line
	2750 2150 2750 2250
$Comp
L sch_power:GND #PWR016
U 1 1 5AF90F9D
P 2950 2250
F 0 "#PWR016" H 2950 2150 50  0001 C CNN
F 1 "GND" H 2950 2150 50  0000 C CNN
F 2 "" H 2950 2250 50  0001 C CNN
F 3 "" H 2950 2250 50  0001 C CNN
	1    2950 2250
	1    0    0    -1  
$EndComp
Wire Wire Line
	2950 2150 2950 2250
Wire Wire Line
	1750 1600 1750 1700
Connection ~ 1750 1700
$Comp
L passive:R R1
U 1 1 5AF94389
P 1400 1950
F 0 "R1" H 1510 1970 50  0000 L BNN
F 1 "1k" H 1510 1930 50  0000 L TNN
F 2 "discrete_smt:CAPC1608X95N_0603_IPC-B" H 1400 1950 50  0001 C CNN
F 3 "" H 1400 1950 50  0001 C CNN
	1    1400 1950
	0    -1   -1   0   
$EndComp
$Comp
L passive:C_NP C1
U 1 1 5AF9447B
P 1400 2550
F 0 "C1" H 1460 2570 50  0000 L BNN
F 1 "100nF" H 1460 2530 50  0000 L TNN
F 2 "discrete_smt:CAPC1005X55_0402_IPC-B" H 1400 2550 50  0001 C CNN
F 3 "" H 1400 2550 50  0001 C CNN
	1    1400 2550
	0    -1   -1   0   
$EndComp
$Comp
L sch_power:GND #PWR02
U 1 1 5AF94482
P 1400 2700
F 0 "#PWR02" H 1400 2600 50  0001 C CNN
F 1 "GND" H 1400 2600 50  0000 C CNN
F 2 "" H 1400 2700 50  0001 C CNN
F 3 "" H 1400 2700 50  0001 C CNN
	1    1400 2700
	1    0    0    -1  
$EndComp
Wire Wire Line
	1400 2650 1400 2700
Wire Wire Line
	1750 1700 1400 1700
Wire Wire Line
	1400 1700 1400 1750
Wire Wire Line
	1400 2150 1400 2200
Wire Wire Line
	1400 2200 1600 2200
Wire Wire Line
	1600 2200 1600 2550
Wire Wire Line
	1600 2550 3050 2550
Connection ~ 1400 2200
Wire Wire Line
	1400 2200 1400 2450
$Comp
L connector:J_STD_FAN_4PIN J1
U 1 1 5AFA3E82
P 14850 1800
F 0 "J1" H 15250 1950 50  0000 C CNN
F 1 "MOLEX_3930-1060" H 15000 1350 50  0000 L CNN
F 2 "connector_tht:MOLEX_47053-1000" H 14850 1800 50  0001 C CNN
F 3 "" H 14850 1800 50  0001 C CNN
	1    14850 1800
	1    0    0    -1  
$EndComp
$Comp
L connector:J_STD_ATX-PCIEX6 J10
U 1 1 5AF98ED3
P 12350 1100
F 0 "J10" H 12800 1250 50  0000 C CNN
F 1 "J_STD_ATX-PCIEX6" H 12500 750 50  0000 L CNN
F 2 "connector_tht:MOLEX_39-30-1060_ATX6PIN" H 12350 1100 50  0001 C CNN
F 3 "" H 12350 1100 50  0001 C CNN
	1    12350 1100
	1    0    0    -1  
$EndComp
$Comp
L sch_power:V_12V0 #PWR031
U 1 1 5AF99027
P 12300 1000
F 0 "#PWR031" H 12300 1000 50  0001 C CNN
F 1 "V_12V0" H 12300 1150 50  0000 C CNN
F 2 "" H 12300 1000 50  0001 C CNN
F 3 "" H 12300 1000 50  0001 C CNN
	1    12300 1000
	1    0    0    -1  
$EndComp
Wire Wire Line
	12350 1100 12300 1100
Wire Wire Line
	12300 1100 12300 1000
Wire Wire Line
	12350 1200 12300 1200
Wire Wire Line
	12300 1200 12300 1100
Connection ~ 12300 1100
Wire Wire Line
	12350 1300 12300 1300
Wire Wire Line
	12300 1300 12300 1200
Connection ~ 12300 1200
$Comp
L sch_power:GND #PWR035
U 1 1 5AF9F45E
P 13300 1350
F 0 "#PWR035" H 13300 1250 50  0001 C CNN
F 1 "GND" H 13300 1250 50  0000 C CNN
F 2 "" H 13300 1350 50  0001 C CNN
F 3 "" H 13300 1350 50  0001 C CNN
	1    13300 1350
	1    0    0    -1  
$EndComp
Wire Wire Line
	13200 1300 13300 1300
Wire Wire Line
	13300 1300 13300 1350
Connection ~ 13300 1300
Wire Wire Line
	13200 1100 13300 1100
Wire Wire Line
	13300 1100 13300 1300
Wire Wire Line
	14750 1900 14850 1900
$Comp
L active:NFET Q2
U 1 1 5AF9A25F
P 14400 2350
F 0 "Q2" H 14430 2400 50  0000 L CNN
F 1 "FDN337N" H 14430 2300 50  0000 L CNN
F 2 "ic_smt:SOT-23_ONSEMI_2N7002" H 14400 2350 50  0001 C CNN
F 3 "" H 14400 2350 50  0001 C CNN
	1    14400 2350
	1    0    0    -1  
$EndComp
Wire Wire Line
	14850 1800 14400 1800
Wire Wire Line
	14400 1800 14400 2200
Wire Wire Line
	14250 2400 13050 2400
Text GLabel 13050 2400 0    50   Input ~ 0
FAN1_PWM_HARD
$Comp
L sch_power:GND #PWR026
U 1 1 5AFC63E7
P 14400 2550
F 0 "#PWR026" H 14400 2450 50  0001 C CNN
F 1 "GND" H 14400 2450 50  0000 C CNN
F 2 "" H 14400 2550 50  0001 C CNN
F 3 "" H 14400 2550 50  0001 C CNN
	1    14400 2550
	1    0    0    -1  
$EndComp
Wire Wire Line
	14400 2500 14400 2550
Text GLabel 13050 2100 0    50   Input ~ 0
FAN1_PWM_SOFT
$Comp
L passive:R R5
U 1 1 5AFF47DE
P 13600 2000
F 0 "R5" H 13710 2020 50  0000 L BNN
F 1 "10k" H 13710 1980 50  0000 L TNN
F 2 "discrete_smt:RESC1608X50N_0603_WAVEPAD" H 13600 2000 50  0001 C CNN
F 3 "" H 13600 2000 50  0001 C CNN
	1    13600 2000
	1    0    0    -1  
$EndComp
$Comp
L passive:R R6
U 1 1 5AFF48A1
P 13600 2200
F 0 "R6" H 13710 2220 50  0000 L BNN
F 1 "6k8" H 13710 2180 50  0000 L TNN
F 2 "discrete_smt:RESC1608X50N_0603_WAVEPAD" H 13600 2200 50  0001 C CNN
F 3 "" H 13600 2200 50  0001 C CNN
	1    13600 2200
	1    0    0    -1  
$EndComp
Wire Wire Line
	13400 2000 13300 2000
Wire Wire Line
	13800 2000 13950 2000
$Comp
L sch_power:GND #PWR020
U 1 1 5AFFB5E7
P 13950 2250
F 0 "#PWR020" H 13950 2150 50  0001 C CNN
F 1 "GND" H 13950 2150 50  0000 C CNN
F 2 "" H 13950 2250 50  0001 C CNN
F 3 "" H 13950 2250 50  0001 C CNN
	1    13950 2250
	1    0    0    -1  
$EndComp
$Comp
L passive:R R11
U 1 1 5AFFF5A4
P 13950 1600
F 0 "R11" H 14060 1620 50  0000 L BNN
F 1 "10k" H 14060 1580 50  0000 L TNN
F 2 "discrete_smt:RESC1608X50N_0603_WAVEPAD" H 13950 1600 50  0001 C CNN
F 3 "" H 13950 1600 50  0001 C CNN
	1    13950 1600
	0    -1   -1   0   
$EndComp
Wire Wire Line
	13300 2000 13300 2200
Wire Wire Line
	13950 2200 13950 2250
Wire Wire Line
	13950 1800 13950 2000
Connection ~ 13950 2000
Wire Wire Line
	13950 2000 14850 2000
$Comp
L sch_power:V_12V0 #PWR019
U 1 1 5B052416
P 13950 1150
F 0 "#PWR019" H 13950 1150 50  0001 C CNN
F 1 "V_12V0" H 13950 1300 50  0000 C CNN
F 2 "" H 13950 1150 50  0001 C CNN
F 3 "" H 13950 1150 50  0001 C CNN
	1    13950 1150
	1    0    0    -1  
$EndComp
Wire Wire Line
	13950 1150 13950 1400
Text GLabel 12800 2000 0    50   Output ~ 0
FAN1_SNS
Wire Wire Line
	12800 2000 13300 2000
Connection ~ 13300 2000
Wire Wire Line
	13300 2200 13400 2200
Wire Wire Line
	13800 2200 13950 2200
$Comp
L sch_power:V_12V0 #PWR032
U 1 1 5B0B2518
P 14750 1150
F 0 "#PWR032" H 14750 1150 50  0001 C CNN
F 1 "V_12V0" H 14750 1300 50  0000 C CNN
F 2 "" H 14750 1150 50  0001 C CNN
F 3 "" H 14750 1150 50  0001 C CNN
	1    14750 1150
	1    0    0    -1  
$EndComp
Wire Wire Line
	14750 1150 14750 1900
$Comp
L active:D D1
U 1 1 5B0C5978
P 14400 1650
F 0 "D1" H 14460 1670 50  0000 L BNN
F 1 "1N4148WS" H 14460 1630 50  0000 L TNN
F 2 "discrete_smt:SODFL250X125X90L40X30N_SOD-323FL" H 14400 1650 50  0001 C CNN
F 3 "" H 14400 1650 50  0001 C CNN
	1    14400 1650
	0    -1   -1   0   
$EndComp
Wire Wire Line
	14400 1800 14400 1750
Connection ~ 14400 1800
$Comp
L sch_power:V_12V0 #PWR025
U 1 1 5B0C8C01
P 14400 1150
F 0 "#PWR025" H 14400 1150 50  0001 C CNN
F 1 "V_12V0" H 14400 1300 50  0000 C CNN
F 2 "" H 14400 1150 50  0001 C CNN
F 3 "" H 14400 1150 50  0001 C CNN
	1    14400 1150
	1    0    0    -1  
$EndComp
Wire Wire Line
	14400 1150 14400 1550
$Comp
L connector:J_STD_FAN_4PIN J2
U 1 1 5B0EDC3F
P 14850 3650
F 0 "J2" H 15250 3800 50  0000 C CNN
F 1 "MOLEX_3930-1060" H 15000 3200 50  0000 L CNN
F 2 "connector_tht:MOLEX_47053-1000" H 14850 3650 50  0001 C CNN
F 3 "" H 14850 3650 50  0001 C CNN
	1    14850 3650
	1    0    0    -1  
$EndComp
Wire Wire Line
	14750 3750 14850 3750
$Comp
L active:NFET Q3
U 1 1 5B0EDC47
P 14400 4200
F 0 "Q3" H 14430 4250 50  0000 L CNN
F 1 "FDN337N" H 14430 4150 50  0000 L CNN
F 2 "ic_smt:SOT-23_ONSEMI_2N7002" H 14400 4200 50  0001 C CNN
F 3 "" H 14400 4200 50  0001 C CNN
	1    14400 4200
	1    0    0    -1  
$EndComp
Wire Wire Line
	14850 3650 14400 3650
Wire Wire Line
	14400 3650 14400 4050
Wire Wire Line
	14250 4250 13050 4250
Text GLabel 13050 4250 0    50   Input ~ 0
FAN2_PWM_HARD
$Comp
L sch_power:GND #PWR028
U 1 1 5B0EDC52
P 14400 4400
F 0 "#PWR028" H 14400 4300 50  0001 C CNN
F 1 "GND" H 14400 4300 50  0000 C CNN
F 2 "" H 14400 4400 50  0001 C CNN
F 3 "" H 14400 4400 50  0001 C CNN
	1    14400 4400
	1    0    0    -1  
$EndComp
Wire Wire Line
	14400 4350 14400 4400
Text GLabel 13050 3950 0    50   Input ~ 0
FAN2_PWM_SOFT
$Comp
L passive:R R7
U 1 1 5B0EDC5B
P 13600 3850
F 0 "R7" H 13710 3870 50  0000 L BNN
F 1 "10k" H 13710 3830 50  0000 L TNN
F 2 "discrete_smt:RESC1608X50N_0603_WAVEPAD" H 13600 3850 50  0001 C CNN
F 3 "" H 13600 3850 50  0001 C CNN
	1    13600 3850
	1    0    0    -1  
$EndComp
$Comp
L passive:R R8
U 1 1 5B0EDC62
P 13600 4050
F 0 "R8" H 13710 4070 50  0000 L BNN
F 1 "6k8" H 13710 4030 50  0000 L TNN
F 2 "discrete_smt:RESC1608X50N_0603_WAVEPAD" H 13600 4050 50  0001 C CNN
F 3 "" H 13600 4050 50  0001 C CNN
	1    13600 4050
	1    0    0    -1  
$EndComp
Wire Wire Line
	13400 3850 13300 3850
Wire Wire Line
	13800 3850 13950 3850
$Comp
L sch_power:GND #PWR022
U 1 1 5B0EDC6B
P 13950 4100
F 0 "#PWR022" H 13950 4000 50  0001 C CNN
F 1 "GND" H 13950 4000 50  0000 C CNN
F 2 "" H 13950 4100 50  0001 C CNN
F 3 "" H 13950 4100 50  0001 C CNN
	1    13950 4100
	1    0    0    -1  
$EndComp
$Comp
L passive:R R12
U 1 1 5B0EDC71
P 13950 3450
F 0 "R12" H 14060 3470 50  0000 L BNN
F 1 "10k" H 14060 3430 50  0000 L TNN
F 2 "discrete_smt:RESC1608X50N_0603_WAVEPAD" H 13950 3450 50  0001 C CNN
F 3 "" H 13950 3450 50  0001 C CNN
	1    13950 3450
	0    -1   -1   0   
$EndComp
Wire Wire Line
	13300 3850 13300 4050
Wire Wire Line
	13950 4050 13950 4100
Wire Wire Line
	13950 3650 13950 3850
Connection ~ 13950 3850
Wire Wire Line
	13950 3850 14850 3850
$Comp
L sch_power:V_12V0 #PWR021
U 1 1 5B0EDC7D
P 13950 3000
F 0 "#PWR021" H 13950 3000 50  0001 C CNN
F 1 "V_12V0" H 13950 3150 50  0000 C CNN
F 2 "" H 13950 3000 50  0001 C CNN
F 3 "" H 13950 3000 50  0001 C CNN
	1    13950 3000
	1    0    0    -1  
$EndComp
Wire Wire Line
	13950 3000 13950 3250
Text GLabel 12800 3850 0    50   Output ~ 0
FAN2_SNS
Wire Wire Line
	12800 3850 13300 3850
Connection ~ 13300 3850
Wire Wire Line
	13300 4050 13400 4050
Wire Wire Line
	13800 4050 13950 4050
$Comp
L sch_power:V_12V0 #PWR033
U 1 1 5B0EDC89
P 14750 3000
F 0 "#PWR033" H 14750 3000 50  0001 C CNN
F 1 "V_12V0" H 14750 3150 50  0000 C CNN
F 2 "" H 14750 3000 50  0001 C CNN
F 3 "" H 14750 3000 50  0001 C CNN
	1    14750 3000
	1    0    0    -1  
$EndComp
Wire Wire Line
	14750 3000 14750 3750
$Comp
L active:D D2
U 1 1 5B0EDC90
P 14400 3500
F 0 "D2" H 14460 3520 50  0000 L BNN
F 1 "1N4148WS" H 14460 3480 50  0000 L TNN
F 2 "discrete_smt:SODFL250X125X90L40X30N_SOD-323FL" H 14400 3500 50  0001 C CNN
F 3 "" H 14400 3500 50  0001 C CNN
	1    14400 3500
	0    -1   -1   0   
$EndComp
Wire Wire Line
	14400 3650 14400 3600
Connection ~ 14400 3650
$Comp
L sch_power:V_12V0 #PWR027
U 1 1 5B0EDC99
P 14400 3000
F 0 "#PWR027" H 14400 3000 50  0001 C CNN
F 1 "V_12V0" H 14400 3150 50  0000 C CNN
F 2 "" H 14400 3000 50  0001 C CNN
F 3 "" H 14400 3000 50  0001 C CNN
	1    14400 3000
	1    0    0    -1  
$EndComp
Wire Wire Line
	14400 3000 14400 3400
$Comp
L connector:J_STD_FAN_4PIN J3
U 1 1 5B0FA79F
P 14850 5450
F 0 "J3" H 15250 5600 50  0000 C CNN
F 1 "MOLEX_3930-1060" H 15000 5000 50  0000 L CNN
F 2 "connector_tht:MOLEX_47053-1000" H 14850 5450 50  0001 C CNN
F 3 "" H 14850 5450 50  0001 C CNN
	1    14850 5450
	1    0    0    -1  
$EndComp
Wire Wire Line
	14750 5550 14850 5550
$Comp
L active:NFET Q4
U 1 1 5B0FA7A7
P 14400 6000
F 0 "Q4" H 14430 6050 50  0000 L CNN
F 1 "FDN337N" H 14430 5950 50  0000 L CNN
F 2 "ic_smt:SOT-23_ONSEMI_2N7002" H 14400 6000 50  0001 C CNN
F 3 "" H 14400 6000 50  0001 C CNN
	1    14400 6000
	1    0    0    -1  
$EndComp
Wire Wire Line
	14850 5450 14400 5450
Wire Wire Line
	14400 5450 14400 5850
Wire Wire Line
	14250 6050 13050 6050
Text GLabel 13050 6050 0    50   Input ~ 0
FAN3_PWM_HARD
$Comp
L sch_power:GND #PWR030
U 1 1 5B0FA7B2
P 14400 6200
F 0 "#PWR030" H 14400 6100 50  0001 C CNN
F 1 "GND" H 14400 6100 50  0000 C CNN
F 2 "" H 14400 6200 50  0001 C CNN
F 3 "" H 14400 6200 50  0001 C CNN
	1    14400 6200
	1    0    0    -1  
$EndComp
Wire Wire Line
	14400 6150 14400 6200
Text GLabel 13050 5750 0    50   Input ~ 0
FAN3_PWM_SOFT
$Comp
L passive:R R9
U 1 1 5B0FA7BB
P 13600 5650
F 0 "R9" H 13710 5670 50  0000 L BNN
F 1 "10k" H 13710 5630 50  0000 L TNN
F 2 "discrete_smt:RESC1608X50N_0603_WAVEPAD" H 13600 5650 50  0001 C CNN
F 3 "" H 13600 5650 50  0001 C CNN
	1    13600 5650
	1    0    0    -1  
$EndComp
$Comp
L passive:R R10
U 1 1 5B0FA7C2
P 13600 5850
F 0 "R10" H 13710 5870 50  0000 L BNN
F 1 "6k8" H 13710 5830 50  0000 L TNN
F 2 "discrete_smt:RESC1608X50N_0603_WAVEPAD" H 13600 5850 50  0001 C CNN
F 3 "" H 13600 5850 50  0001 C CNN
	1    13600 5850
	1    0    0    -1  
$EndComp
Wire Wire Line
	13400 5650 13300 5650
Wire Wire Line
	13800 5650 13950 5650
$Comp
L sch_power:GND #PWR024
U 1 1 5B0FA7CB
P 13950 5900
F 0 "#PWR024" H 13950 5800 50  0001 C CNN
F 1 "GND" H 13950 5800 50  0000 C CNN
F 2 "" H 13950 5900 50  0001 C CNN
F 3 "" H 13950 5900 50  0001 C CNN
	1    13950 5900
	1    0    0    -1  
$EndComp
$Comp
L passive:R R13
U 1 1 5B0FA7D1
P 13950 5250
F 0 "R13" H 14060 5270 50  0000 L BNN
F 1 "10k" H 14060 5230 50  0000 L TNN
F 2 "discrete_smt:RESC1608X50N_0603_WAVEPAD" H 13950 5250 50  0001 C CNN
F 3 "" H 13950 5250 50  0001 C CNN
	1    13950 5250
	0    -1   -1   0   
$EndComp
Wire Wire Line
	13300 5650 13300 5850
Wire Wire Line
	13950 5850 13950 5900
Wire Wire Line
	13950 5450 13950 5650
Connection ~ 13950 5650
Wire Wire Line
	13950 5650 14850 5650
$Comp
L sch_power:V_12V0 #PWR023
U 1 1 5B0FA7DD
P 13950 4800
F 0 "#PWR023" H 13950 4800 50  0001 C CNN
F 1 "V_12V0" H 13950 4950 50  0000 C CNN
F 2 "" H 13950 4800 50  0001 C CNN
F 3 "" H 13950 4800 50  0001 C CNN
	1    13950 4800
	1    0    0    -1  
$EndComp
Wire Wire Line
	13950 4800 13950 5050
Text GLabel 12800 5650 0    50   Output ~ 0
FAN3_SNS
Wire Wire Line
	12800 5650 13300 5650
Connection ~ 13300 5650
Wire Wire Line
	13300 5850 13400 5850
Wire Wire Line
	13800 5850 13950 5850
$Comp
L sch_power:V_12V0 #PWR034
U 1 1 5B0FA7E9
P 14750 4800
F 0 "#PWR034" H 14750 4800 50  0001 C CNN
F 1 "V_12V0" H 14750 4950 50  0000 C CNN
F 2 "" H 14750 4800 50  0001 C CNN
F 3 "" H 14750 4800 50  0001 C CNN
	1    14750 4800
	1    0    0    -1  
$EndComp
Wire Wire Line
	14750 4800 14750 5550
$Comp
L active:D D3
U 1 1 5B0FA7F0
P 14400 5300
F 0 "D3" H 14460 5320 50  0000 L BNN
F 1 "1N4148WS" H 14460 5280 50  0000 L TNN
F 2 "discrete_smt:SODFL250X125X90L40X30N_SOD-323FL" H 14400 5300 50  0001 C CNN
F 3 "" H 14400 5300 50  0001 C CNN
	1    14400 5300
	0    -1   -1   0   
$EndComp
Wire Wire Line
	14400 5450 14400 5400
Connection ~ 14400 5450
$Comp
L sch_power:V_12V0 #PWR029
U 1 1 5B0FA7F9
P 14400 4800
F 0 "#PWR029" H 14400 4800 50  0001 C CNN
F 1 "V_12V0" H 14400 4950 50  0000 C CNN
F 2 "" H 14400 4800 50  0001 C CNN
F 3 "" H 14400 4800 50  0001 C CNN
	1    14400 4800
	1    0    0    -1  
$EndComp
Wire Wire Line
	14400 4800 14400 5200
$Comp
L passive:R R16
U 1 1 5B10C65F
P 14100 5750
F 0 "R16" H 14210 5770 50  0000 L BNN
F 1 "0R" H 14210 5730 50  0000 L TNN
F 2 "discrete_smt:RESC1608X50N_0603_WAVEPAD" H 14100 5750 50  0001 C CNN
F 3 "" H 14100 5750 50  0001 C CNN
	1    14100 5750
	1    0    0    -1  
$EndComp
Wire Wire Line
	14850 5750 14300 5750
Wire Wire Line
	13900 5750 13050 5750
$Comp
L passive:R R15
U 1 1 5B11D7D3
P 14100 3950
F 0 "R15" H 14210 3970 50  0000 L BNN
F 1 "0R" H 14210 3930 50  0000 L TNN
F 2 "discrete_smt:RESC1608X50N_0603_WAVEPAD" H 14100 3950 50  0001 C CNN
F 3 "" H 14100 3950 50  0001 C CNN
	1    14100 3950
	1    0    0    -1  
$EndComp
Wire Wire Line
	14850 3950 14300 3950
Wire Wire Line
	13900 3950 13050 3950
$Comp
L passive:R R14
U 1 1 5B1285C1
P 14100 2100
F 0 "R14" H 14210 2120 50  0000 L BNN
F 1 "0R" H 14210 2080 50  0000 L TNN
F 2 "discrete_smt:RESC1608X50N_0603_WAVEPAD" H 14100 2100 50  0001 C CNN
F 3 "" H 14100 2100 50  0001 C CNN
	1    14100 2100
	1    0    0    -1  
$EndComp
Wire Wire Line
	14850 2100 14300 2100
Wire Wire Line
	13900 2100 13050 2100
$Comp
L connector:J_GEN_4PIN-1COLX4ROW J5
U 1 1 5AF9ED5E
P 3300 8850
F 0 "J5" H 3550 9000 50  0000 C CNN
F 1 "J_GEN_4PIN-1COLX4ROW" H 3450 8400 50  0000 L CNN
F 2 "connector_tht:PINHEADER_2.54MM_1x4" H 3300 8850 50  0001 C CNN
F 3 "" H 3300 8850 50  0001 C CNN
	1    3300 8850
	1    0    0    -1  
$EndComp
Wire Wire Line
	3300 9150 3200 9150
Wire Wire Line
	3200 9150 3200 9250
$Comp
L sch_power:GND #PWR039
U 1 1 5AFA52F2
P 3200 9250
F 0 "#PWR039" H 3200 9150 50  0001 C CNN
F 1 "GND" H 3200 9150 50  0000 C CNN
F 2 "" H 3200 9250 50  0001 C CNN
F 3 "" H 3200 9250 50  0001 C CNN
	1    3200 9250
	1    0    0    -1  
$EndComp
$Comp
L sch_power:V_3V3 #PWR038
U 1 1 5AFA536B
P 3200 8750
F 0 "#PWR038" H 3200 8750 50  0001 C CNN
F 1 "V_3V3" H 3200 8900 50  0000 C CNN
F 2 "" H 3200 8750 50  0001 C CNN
F 3 "" H 3200 8750 50  0001 C CNN
	1    3200 8750
	1    0    0    -1  
$EndComp
Wire Wire Line
	3300 8850 3200 8850
Wire Wire Line
	3200 8850 3200 8750
Wire Wire Line
	3300 9050 2350 9050
Wire Wire Line
	8400 1900 9450 1900
Wire Wire Line
	8400 2000 9450 2000
Wire Wire Line
	8400 2200 9450 2200
Wire Wire Line
	8400 4300 9450 4300
$Comp
L passive:R R17
U 1 1 5AFE229A
P 1950 8300
F 0 "R17" H 2060 8320 50  0000 L BNN
F 1 "0R" H 2060 8280 50  0000 L TNN
F 2 "discrete_smt:RESC1608X50N_0603_WAVEPAD" H 1950 8300 50  0001 C CNN
F 3 "" H 1950 8300 50  0001 C CNN
	1    1950 8300
	1    0    0    -1  
$EndComp
$Comp
L passive:R R19
U 1 1 5AFE2869
P 1950 8950
F 0 "R19" H 2060 8970 50  0000 L BNN
F 1 "0R" H 2060 8930 50  0000 L TNN
F 2 "discrete_smt:RESC1608X50N_0603_WAVEPAD" H 1950 8950 50  0001 C CNN
F 3 "" H 1950 8950 50  0001 C CNN
	1    1950 8950
	1    0    0    -1  
$EndComp
Wire Wire Line
	2700 8950 3300 8950
Wire Wire Line
	2150 8300 2700 8300
Wire Wire Line
	2700 8300 2700 8950
Connection ~ 2700 8950
$Comp
L passive:R R18
U 1 1 5B01DCC3
P 1950 8500
F 0 "R18" H 2060 8520 50  0000 L BNN
F 1 "0R" H 2060 8480 50  0000 L TNN
F 2 "discrete_smt:RESC1608X50N_0603_WAVEPAD" H 1950 8500 50  0001 C CNN
F 3 "" H 1950 8500 50  0001 C CNN
	1    1950 8500
	1    0    0    -1  
$EndComp
$Comp
L passive:R R20
U 1 1 5B01DCCA
P 1950 9150
F 0 "R20" H 2060 9170 50  0000 L BNN
F 1 "0R" H 2060 9130 50  0000 L TNN
F 2 "discrete_smt:RESC1608X50N_0603_WAVEPAD" H 1950 9150 50  0001 C CNN
F 3 "" H 1950 9150 50  0001 C CNN
	1    1950 9150
	1    0    0    -1  
$EndComp
Wire Wire Line
	2150 8500 2350 8500
Wire Wire Line
	2350 8500 2350 9050
Wire Wire Line
	2150 9150 2350 9150
Wire Wire Line
	2350 9150 2350 9050
Text Label 2800 8950 0    50   ~ 0
TMP1_SDA
Text Label 2800 9050 0    50   ~ 0
TMP1_SCL
Wire Wire Line
	1750 8300 1150 8300
Text GLabel 1150 8300 0    50   BiDi ~ 0
I2C0_SDA
Text Label 1300 8300 0    50   ~ 0
I2C0_SDA
Wire Wire Line
	1750 8950 1150 8950
Text GLabel 1150 8950 0    50   BiDi ~ 0
I2C1_SDA
Text Label 1300 8950 0    50   ~ 0
I2C1_SDA
Wire Wire Line
	1750 8500 1150 8500
Text GLabel 1150 8500 0    50   BiDi ~ 0
I2C0_SCL
Text Label 1300 8500 0    50   ~ 0
I2C0_SCL
Wire Wire Line
	1750 9150 1150 9150
Text GLabel 1150 9150 0    50   BiDi ~ 0
I2C1_SCL
Text Label 1300 9150 0    50   ~ 0
I2C1_SCL
Connection ~ 2350 9050
Wire Wire Line
	2150 8950 2700 8950
$Comp
L connector:J_GEN_4PIN-1COLX4ROW J6
U 1 1 5B149B11
P 3300 10300
F 0 "J6" H 3550 10450 50  0000 C CNN
F 1 "J_GEN_4PIN-1COLX4ROW" H 3450 9850 50  0000 L CNN
F 2 "connector_tht:PINHEADER_2.54MM_1x4" H 3300 10300 50  0001 C CNN
F 3 "" H 3300 10300 50  0001 C CNN
	1    3300 10300
	1    0    0    -1  
$EndComp
Wire Wire Line
	3300 10600 3200 10600
Wire Wire Line
	3200 10600 3200 10700
$Comp
L sch_power:GND #PWR041
U 1 1 5B149B1A
P 3200 10700
F 0 "#PWR041" H 3200 10600 50  0001 C CNN
F 1 "GND" H 3200 10600 50  0000 C CNN
F 2 "" H 3200 10700 50  0001 C CNN
F 3 "" H 3200 10700 50  0001 C CNN
	1    3200 10700
	1    0    0    -1  
$EndComp
$Comp
L sch_power:V_3V3 #PWR040
U 1 1 5B149B20
P 3200 10200
F 0 "#PWR040" H 3200 10200 50  0001 C CNN
F 1 "V_3V3" H 3200 10350 50  0000 C CNN
F 2 "" H 3200 10200 50  0001 C CNN
F 3 "" H 3200 10200 50  0001 C CNN
	1    3200 10200
	1    0    0    -1  
$EndComp
Wire Wire Line
	3300 10300 3200 10300
Wire Wire Line
	3200 10300 3200 10200
Wire Wire Line
	3300 10500 2350 10500
$Comp
L passive:R R21
U 1 1 5B149B29
P 1950 9750
F 0 "R21" H 2060 9770 50  0000 L BNN
F 1 "0R" H 2060 9730 50  0000 L TNN
F 2 "discrete_smt:RESC1608X50N_0603_WAVEPAD" H 1950 9750 50  0001 C CNN
F 3 "" H 1950 9750 50  0001 C CNN
	1    1950 9750
	1    0    0    -1  
$EndComp
$Comp
L passive:R R23
U 1 1 5B149B30
P 1950 10400
F 0 "R23" H 2060 10420 50  0000 L BNN
F 1 "0R" H 2060 10380 50  0000 L TNN
F 2 "discrete_smt:RESC1608X50N_0603_WAVEPAD" H 1950 10400 50  0001 C CNN
F 3 "" H 1950 10400 50  0001 C CNN
	1    1950 10400
	1    0    0    -1  
$EndComp
Wire Wire Line
	2700 10400 3300 10400
Wire Wire Line
	2150 9750 2700 9750
Wire Wire Line
	2700 9750 2700 10400
Connection ~ 2700 10400
$Comp
L passive:R R22
U 1 1 5B149B3B
P 1950 9950
F 0 "R22" H 2060 9970 50  0000 L BNN
F 1 "0R" H 2060 9930 50  0000 L TNN
F 2 "discrete_smt:RESC1608X50N_0603_WAVEPAD" H 1950 9950 50  0001 C CNN
F 3 "" H 1950 9950 50  0001 C CNN
	1    1950 9950
	1    0    0    -1  
$EndComp
$Comp
L passive:R R24
U 1 1 5B149B42
P 1950 10600
F 0 "R24" H 2060 10620 50  0000 L BNN
F 1 "0R" H 2060 10580 50  0000 L TNN
F 2 "discrete_smt:RESC1608X50N_0603_WAVEPAD" H 1950 10600 50  0001 C CNN
F 3 "" H 1950 10600 50  0001 C CNN
	1    1950 10600
	1    0    0    -1  
$EndComp
Wire Wire Line
	2150 9950 2350 9950
Wire Wire Line
	2350 9950 2350 10500
Wire Wire Line
	2150 10600 2350 10600
Wire Wire Line
	2350 10600 2350 10500
Text Label 2800 10400 0    50   ~ 0
TMP2_SDA
Text Label 2800 10500 0    50   ~ 0
TMP2_SCL
Wire Wire Line
	1750 9750 1150 9750
Text Label 1300 9750 0    50   ~ 0
I2C0_SDA
Wire Wire Line
	1750 10400 1150 10400
Text Label 1300 10400 0    50   ~ 0
I2C1_SDA
Wire Wire Line
	1750 9950 1150 9950
Text Label 1300 9950 0    50   ~ 0
I2C0_SCL
Wire Wire Line
	1750 10600 1150 10600
Text Label 1300 10600 0    50   ~ 0
I2C1_SCL
Connection ~ 2350 10500
Wire Wire Line
	2150 10400 2700 10400
$Comp
L connector:J_GEN_4PIN-1COLX4ROW J7
U 1 1 5B1549CE
P 7250 8900
F 0 "J7" H 7500 9050 50  0000 C CNN
F 1 "J_GEN_4PIN-1COLX4ROW" H 7400 8450 50  0000 L CNN
F 2 "connector_tht:PINHEADER_2.54MM_1x4" H 7250 8900 50  0001 C CNN
F 3 "" H 7250 8900 50  0001 C CNN
	1    7250 8900
	1    0    0    -1  
$EndComp
Wire Wire Line
	7250 9200 7150 9200
Wire Wire Line
	7150 9200 7150 9300
$Comp
L sch_power:GND #PWR043
U 1 1 5B1549D7
P 7150 9300
F 0 "#PWR043" H 7150 9200 50  0001 C CNN
F 1 "GND" H 7150 9200 50  0000 C CNN
F 2 "" H 7150 9300 50  0001 C CNN
F 3 "" H 7150 9300 50  0001 C CNN
	1    7150 9300
	1    0    0    -1  
$EndComp
$Comp
L sch_power:V_3V3 #PWR042
U 1 1 5B1549DD
P 7150 8800
F 0 "#PWR042" H 7150 8800 50  0001 C CNN
F 1 "V_3V3" H 7150 8950 50  0000 C CNN
F 2 "" H 7150 8800 50  0001 C CNN
F 3 "" H 7150 8800 50  0001 C CNN
	1    7150 8800
	1    0    0    -1  
$EndComp
Wire Wire Line
	7250 8900 7150 8900
Wire Wire Line
	7150 8900 7150 8800
Wire Wire Line
	7250 9100 6300 9100
$Comp
L passive:R R25
U 1 1 5B1549E6
P 5900 8350
F 0 "R25" H 6010 8370 50  0000 L BNN
F 1 "0R" H 6010 8330 50  0000 L TNN
F 2 "discrete_smt:RESC1608X50N_0603_WAVEPAD" H 5900 8350 50  0001 C CNN
F 3 "" H 5900 8350 50  0001 C CNN
	1    5900 8350
	1    0    0    -1  
$EndComp
$Comp
L passive:R R27
U 1 1 5B1549ED
P 5900 9000
F 0 "R27" H 6010 9020 50  0000 L BNN
F 1 "0R" H 6010 8980 50  0000 L TNN
F 2 "discrete_smt:RESC1608X50N_0603_WAVEPAD" H 5900 9000 50  0001 C CNN
F 3 "" H 5900 9000 50  0001 C CNN
	1    5900 9000
	1    0    0    -1  
$EndComp
Wire Wire Line
	6650 9000 7250 9000
Wire Wire Line
	6100 8350 6650 8350
Wire Wire Line
	6650 8350 6650 9000
Connection ~ 6650 9000
$Comp
L passive:R R26
U 1 1 5B1549F8
P 5900 8550
F 0 "R26" H 6010 8570 50  0000 L BNN
F 1 "0R" H 6010 8530 50  0000 L TNN
F 2 "discrete_smt:RESC1608X50N_0603_WAVEPAD" H 5900 8550 50  0001 C CNN
F 3 "" H 5900 8550 50  0001 C CNN
	1    5900 8550
	1    0    0    -1  
$EndComp
$Comp
L passive:R R28
U 1 1 5B1549FF
P 5900 9200
F 0 "R28" H 6010 9220 50  0000 L BNN
F 1 "0R" H 6010 9180 50  0000 L TNN
F 2 "discrete_smt:RESC1608X50N_0603_WAVEPAD" H 5900 9200 50  0001 C CNN
F 3 "" H 5900 9200 50  0001 C CNN
	1    5900 9200
	1    0    0    -1  
$EndComp
Wire Wire Line
	6100 8550 6300 8550
Wire Wire Line
	6300 8550 6300 9100
Wire Wire Line
	6100 9200 6300 9200
Wire Wire Line
	6300 9200 6300 9100
Text Label 6750 9000 0    50   ~ 0
TMP3_SDA
Text Label 6750 9100 0    50   ~ 0
TMP3_SCL
Wire Wire Line
	5700 8350 5100 8350
Text Label 5250 8350 0    50   ~ 0
I2C0_SDA
Wire Wire Line
	5700 9000 5100 9000
Text Label 5250 9000 0    50   ~ 0
I2C1_SDA
Wire Wire Line
	5700 8550 5100 8550
Text Label 5250 8550 0    50   ~ 0
I2C0_SCL
Wire Wire Line
	5700 9200 5100 9200
Text Label 5250 9200 0    50   ~ 0
I2C1_SCL
Connection ~ 6300 9100
Wire Wire Line
	6100 9000 6650 9000
$Comp
L connector:J_GEN_4PIN-1COLX4ROW J8
U 1 1 5B154A1A
P 7250 10350
F 0 "J8" H 7500 10500 50  0000 C CNN
F 1 "J_GEN_4PIN-1COLX4ROW" H 7400 9900 50  0000 L CNN
F 2 "connector_tht:PINHEADER_2.54MM_1x4" H 7250 10350 50  0001 C CNN
F 3 "" H 7250 10350 50  0001 C CNN
	1    7250 10350
	1    0    0    -1  
$EndComp
Wire Wire Line
	7250 10650 7150 10650
Wire Wire Line
	7150 10650 7150 10750
$Comp
L sch_power:GND #PWR045
U 1 1 5B154A23
P 7150 10750
F 0 "#PWR045" H 7150 10650 50  0001 C CNN
F 1 "GND" H 7150 10650 50  0000 C CNN
F 2 "" H 7150 10750 50  0001 C CNN
F 3 "" H 7150 10750 50  0001 C CNN
	1    7150 10750
	1    0    0    -1  
$EndComp
$Comp
L sch_power:V_3V3 #PWR044
U 1 1 5B154A29
P 7150 10250
F 0 "#PWR044" H 7150 10250 50  0001 C CNN
F 1 "V_3V3" H 7150 10400 50  0000 C CNN
F 2 "" H 7150 10250 50  0001 C CNN
F 3 "" H 7150 10250 50  0001 C CNN
	1    7150 10250
	1    0    0    -1  
$EndComp
Wire Wire Line
	7250 10350 7150 10350
Wire Wire Line
	7150 10350 7150 10250
Wire Wire Line
	7250 10550 6300 10550
$Comp
L passive:R R29
U 1 1 5B154A32
P 5900 9800
F 0 "R29" H 6010 9820 50  0000 L BNN
F 1 "0R" H 6010 9780 50  0000 L TNN
F 2 "discrete_smt:RESC1608X50N_0603_WAVEPAD" H 5900 9800 50  0001 C CNN
F 3 "" H 5900 9800 50  0001 C CNN
	1    5900 9800
	1    0    0    -1  
$EndComp
$Comp
L passive:R R31
U 1 1 5B154A39
P 5900 10450
F 0 "R31" H 6010 10470 50  0000 L BNN
F 1 "0R" H 6010 10430 50  0000 L TNN
F 2 "discrete_smt:RESC1608X50N_0603_WAVEPAD" H 5900 10450 50  0001 C CNN
F 3 "" H 5900 10450 50  0001 C CNN
	1    5900 10450
	1    0    0    -1  
$EndComp
Wire Wire Line
	6650 10450 7250 10450
Wire Wire Line
	6100 9800 6650 9800
Wire Wire Line
	6650 9800 6650 10450
Connection ~ 6650 10450
$Comp
L passive:R R30
U 1 1 5B154A44
P 5900 10000
F 0 "R30" H 6010 10020 50  0000 L BNN
F 1 "0R" H 6010 9980 50  0000 L TNN
F 2 "discrete_smt:RESC1608X50N_0603_WAVEPAD" H 5900 10000 50  0001 C CNN
F 3 "" H 5900 10000 50  0001 C CNN
	1    5900 10000
	1    0    0    -1  
$EndComp
$Comp
L passive:R R32
U 1 1 5B154A4B
P 5900 10650
F 0 "R32" H 6010 10670 50  0000 L BNN
F 1 "0R" H 6010 10630 50  0000 L TNN
F 2 "discrete_smt:RESC1608X50N_0603_WAVEPAD" H 5900 10650 50  0001 C CNN
F 3 "" H 5900 10650 50  0001 C CNN
	1    5900 10650
	1    0    0    -1  
$EndComp
Wire Wire Line
	6100 10000 6300 10000
Wire Wire Line
	6300 10000 6300 10550
Wire Wire Line
	6100 10650 6300 10650
Wire Wire Line
	6300 10650 6300 10550
Text Label 6750 10450 0    50   ~ 0
TMP4_SDA
Text Label 6750 10550 0    50   ~ 0
TMP4_SCL
Wire Wire Line
	5700 9800 5100 9800
Text Label 5250 9800 0    50   ~ 0
I2C0_SDA
Wire Wire Line
	5700 10450 5100 10450
Text Label 5250 10450 0    50   ~ 0
I2C1_SDA
Wire Wire Line
	5700 10000 5100 10000
Text Label 5250 10000 0    50   ~ 0
I2C0_SCL
Wire Wire Line
	5700 10650 5100 10650
Text Label 5250 10650 0    50   ~ 0
I2C1_SCL
Connection ~ 6300 10550
Wire Wire Line
	6100 10450 6650 10450
Text Label 8500 2000 0    50   ~ 0
I2C0_SDA
Text Label 8500 1900 0    50   ~ 0
I2C0_SCL
Text Label 8500 2200 0    50   ~ 0
I2C1_SCL
Text Label 8500 4300 0    50   ~ 0
I2C1_SDA
Text GLabel 9450 1900 2    50   BiDi ~ 0
I2C0_SCL
Text GLabel 9450 2000 2    50   BiDi ~ 0
I2C0_SDA
Text GLabel 9450 2200 2    50   BiDi ~ 0
I2C1_SCL
Text GLabel 9450 4300 2    50   BiDi ~ 0
I2C1_SDA
Text GLabel 1150 9750 0    50   BiDi ~ 0
I2C0_SDA
Text GLabel 1150 10400 0    50   BiDi ~ 0
I2C1_SDA
Text GLabel 1150 9950 0    50   BiDi ~ 0
I2C0_SCL
Text GLabel 1150 10600 0    50   BiDi ~ 0
I2C1_SCL
Text GLabel 5100 8350 0    50   BiDi ~ 0
I2C0_SDA
Text GLabel 5100 9000 0    50   BiDi ~ 0
I2C1_SDA
Text GLabel 5100 8550 0    50   BiDi ~ 0
I2C0_SCL
Text GLabel 5100 9200 0    50   BiDi ~ 0
I2C1_SCL
Text GLabel 5100 9800 0    50   BiDi ~ 0
I2C0_SDA
Text GLabel 5100 10450 0    50   BiDi ~ 0
I2C1_SDA
Text GLabel 5100 10000 0    50   BiDi ~ 0
I2C0_SCL
Text GLabel 5100 10650 0    50   BiDi ~ 0
I2C1_SCL
Text Notes 12150 750  0    200  ~ 0
FAN Outputs
Text Notes 550  7850 0    200  ~ 0
I2C Headers (TMP inputs)
$Comp
L connector:J_GEN_4PIN-1COLX5ROW J4
U 1 1 5B2C51D1
P 1650 5850
F 0 "J4" H 1900 6000 50  0000 C CNN
F 1 "J_GEN_4PIN-1COLX5ROW" H 1800 5250 50  0000 L CNN
F 2 "connector_tht:PINHEADER_2.54MM_1x5" H 1650 5850 50  0001 C CNN
F 3 "" H 1650 5850 50  0001 C CNN
	1    1650 5850
	-1   0    0    -1  
$EndComp
$Comp
L sch_power:V_3V3 #PWR036
U 1 1 5B2D301C
P 1750 5750
F 0 "#PWR036" H 1750 5750 50  0001 C CNN
F 1 "V_3V3" H 1750 5900 50  0000 C CNN
F 2 "" H 1750 5750 50  0001 C CNN
F 3 "" H 1750 5750 50  0001 C CNN
	1    1750 5750
	1    0    0    -1  
$EndComp
$Comp
L sch_power:GND #PWR037
U 1 1 5B2E0463
P 1750 6450
F 0 "#PWR037" H 1750 6350 50  0001 C CNN
F 1 "GND" H 1750 6350 50  0000 C CNN
F 2 "" H 1750 6450 50  0001 C CNN
F 3 "" H 1750 6450 50  0001 C CNN
	1    1750 6450
	1    0    0    -1  
$EndComp
Wire Wire Line
	1650 6250 1750 6250
Wire Wire Line
	1750 6250 1750 6450
Wire Wire Line
	1650 5850 1750 5850
Wire Wire Line
	1750 5850 1750 5750
Text Label 2350 2550 0    50   ~ 0
RESET#
Text Label 1800 6150 0    50   ~ 0
RESET#
Text Label 1800 5950 0    50   ~ 0
SWDIO
Text Label 1800 6050 0    50   ~ 0
SWDCLK
Wire Wire Line
	3400 4500 2850 4500
Wire Wire Line
	2850 4500 2850 6050
Wire Wire Line
	1650 6050 2850 6050
Wire Wire Line
	2950 5950 2950 4600
Wire Wire Line
	2950 4600 3400 4600
Wire Wire Line
	1650 5950 2950 5950
Wire Wire Line
	3050 6150 3050 2550
Wire Wire Line
	1650 6150 2150 6150
Connection ~ 3050 2550
Wire Wire Line
	3050 2550 3400 2550
Wire Wire Line
	8400 2700 9200 2700
Text Label 8500 2700 0    50   ~ 0
FAN1_PWM_HARD
Text GLabel 9200 2700 2    50   Output ~ 0
FAN1_PWM_HARD
Wire Wire Line
	8400 3400 9200 3400
Text Label 8500 3400 0    50   ~ 0
FAN1_PWM_SOFT
Text GLabel 9200 3400 2    50   Output ~ 0
FAN1_PWM_SOFT
Wire Wire Line
	8400 2800 9200 2800
Text Label 8500 2800 0    50   ~ 0
FAN2_PWM_HARD
Text GLabel 9200 2800 2    50   Output ~ 0
FAN2_PWM_HARD
Wire Wire Line
	8400 1700 9150 1700
Text Label 8500 1700 0    50   ~ 0
FAN3_PWM_HARD
Text GLabel 9200 1700 2    50   Output ~ 0
FAN3_PWM_HARD
Text Label 3700 6150 0    50   ~ 0
FAN3_PWM_SOFT
Text GLabel 9200 6150 2    50   Output ~ 0
FAN3_PWM_SOFT
Wire Wire Line
	8400 2500 9200 2500
Text Label 8500 2500 0    50   ~ 0
FAN2_PWM_SOFT
Text GLabel 9200 2500 2    50   Output ~ 0
FAN2_PWM_SOFT
$Comp
L passive:R R34
U 1 1 5B44F57D
P 10100 4700
F 0 "R34" H 10210 4720 50  0000 L BNN
F 1 "220R" H 10210 4680 50  0000 L TNN
F 2 "discrete_smt:RESC1608X50N_0603_WAVEPAD" H 10100 4700 50  0001 C CNN
F 3 "" H 10100 4700 50  0001 C CNN
	1    10100 4700
	1    0    0    -1  
$EndComp
Wire Wire Line
	10300 4700 10500 4700
Wire Wire Line
	3400 5000 3250 5000
Wire Wire Line
	3250 5000 3250 6150
Wire Wire Line
	3250 6150 9200 6150
Wire Wire Line
	8400 4100 9450 4100
Text Label 8500 4100 0    50   ~ 0
FAN1_SNS
Text GLabel 9450 4100 2    50   Input ~ 0
FAN1_SNS
Wire Wire Line
	8400 2900 9450 2900
Text GLabel 9450 2900 2    50   Input ~ 0
FAN2_SNS
Text Label 8500 2900 0    50   ~ 0
FAN2_SNS
Wire Wire Line
	8400 1800 9450 1800
Text GLabel 9450 1800 2    50   Input ~ 0
FAN3_SNS
Text Label 8500 1800 0    50   ~ 0
FAN3_SNS
$Comp
L passive:R R33
U 1 1 5B650A2B
P 10100 4500
F 0 "R33" H 10210 4520 50  0000 L BNN
F 1 "220R" H 10210 4480 50  0000 L TNN
F 2 "discrete_smt:RESC1608X50N_0603_WAVEPAD" H 10100 4500 50  0001 C CNN
F 3 "" H 10100 4500 50  0001 C CNN
	1    10100 4500
	1    0    0    -1  
$EndComp
Wire Wire Line
	10300 4500 10500 4500
$Comp
L sch_power:V_3V3 #PWR049
U 1 1 5B650A3C
P 10500 4400
F 0 "#PWR049" H 10500 4400 50  0001 C CNN
F 1 "V_3V3" H 10500 4550 50  0000 C CNN
F 2 "" H 10500 4400 50  0001 C CNN
F 3 "" H 10500 4400 50  0001 C CNN
	1    10500 4400
	1    0    0    -1  
$EndComp
Wire Wire Line
	10500 4500 10500 4700
Wire Wire Line
	10500 4400 10500 4500
Connection ~ 10500 4500
Wire Wire Line
	9000 4700 8550 4700
Wire Wire Line
	8550 4700 8550 4500
Wire Wire Line
	8550 4500 8400 4500
Wire Notes Line
	500  7550 8450 7550
Wire Notes Line
	12100 700  12100 6450
$Comp
L ic:U_PWR_LINREG_TLV73333 U4
U 1 1 5B79571B
P 3600 6700
F 0 "U4" H 4000 6850 50  0000 C CNN
F 1 "U_PWR_LINREG_TLV73333" H 3750 6350 50  0000 L CNN
F 2 "ic_smt:SOT-23-5_GENERIC" H 3600 6700 50  0001 C CNN
F 3 "" H 3600 6700 50  0001 C CNN
	1    3600 6700
	1    0    0    -1  
$EndComp
$Comp
L sch_power:V_5V0 #PWR046
U 1 1 5B795CC8
P 3250 6600
F 0 "#PWR046" H 3250 6600 50  0001 C CNN
F 1 "V_5V0" H 3250 6750 50  0000 C CNN
F 2 "" H 3250 6600 50  0001 C CNN
F 3 "" H 3250 6600 50  0001 C CNN
	1    3250 6600
	1    0    0    -1  
$EndComp
$Comp
L sch_power:V_3V3 #PWR051
U 1 1 5B795D81
P 4850 6600
F 0 "#PWR051" H 4850 6600 50  0001 C CNN
F 1 "V_3V3" H 4850 6750 50  0000 C CNN
F 2 "" H 4850 6600 50  0001 C CNN
F 3 "" H 4850 6600 50  0001 C CNN
	1    4850 6600
	1    0    0    -1  
$EndComp
$Comp
L sch_power:GND #PWR048
U 1 1 5B795E2C
P 3500 7250
F 0 "#PWR048" H 3500 7150 50  0001 C CNN
F 1 "GND" H 3500 7150 50  0000 C CNN
F 2 "" H 3500 7250 50  0001 C CNN
F 3 "" H 3500 7250 50  0001 C CNN
	1    3500 7250
	1    0    0    -1  
$EndComp
Wire Wire Line
	3600 6700 3500 6700
Wire Wire Line
	3600 6900 3500 6900
Wire Wire Line
	3500 6900 3500 7250
Wire Wire Line
	4400 6700 4850 6700
Wire Wire Line
	4850 6700 4850 6600
Wire Wire Line
	3600 6800 3500 6800
Wire Wire Line
	3500 6800 3500 6700
Connection ~ 3500 6700
$Comp
L passive:C_NP C11
U 1 1 5B7E15D5
P 3250 7050
F 0 "C11" H 3310 7070 50  0000 L BNN
F 1 "C_NP" H 3310 7030 50  0000 L TNN
F 2 "discrete_smt:CAPC1608X95N_0603_IPC-B" H 3250 7050 50  0001 C CNN
F 3 "" H 3250 7050 50  0001 C CNN
	1    3250 7050
	0    -1   -1   0   
$EndComp
$Comp
L passive:C_NP C12
U 1 1 5B7E1837
P 4850 7050
F 0 "C12" H 4910 7070 50  0000 L BNN
F 1 "C_NP" H 4910 7030 50  0000 L TNN
F 2 "discrete_smt:CAPC1608X95N_0603_IPC-B" H 4850 7050 50  0001 C CNN
F 3 "" H 4850 7050 50  0001 C CNN
	1    4850 7050
	0    -1   -1   0   
$EndComp
Wire Wire Line
	4850 6700 4850 6950
Connection ~ 4850 6700
Wire Wire Line
	3500 6700 3250 6700
Wire Wire Line
	3250 6700 3250 6600
Wire Wire Line
	3250 6700 3250 6950
Connection ~ 3250 6700
$Comp
L sch_power:GND #PWR047
U 1 1 5B88E5BA
P 3250 7250
F 0 "#PWR047" H 3250 7150 50  0001 C CNN
F 1 "GND" H 3250 7150 50  0000 C CNN
F 2 "" H 3250 7250 50  0001 C CNN
F 3 "" H 3250 7250 50  0001 C CNN
	1    3250 7250
	1    0    0    -1  
$EndComp
Wire Wire Line
	3250 7150 3250 7250
$Comp
L sch_power:GND #PWR052
U 1 1 5B8EFF97
P 4850 7250
F 0 "#PWR052" H 4850 7150 50  0001 C CNN
F 1 "GND" H 4850 7150 50  0000 C CNN
F 2 "" H 4850 7250 50  0001 C CNN
F 3 "" H 4850 7250 50  0001 C CNN
	1    4850 7250
	1    0    0    -1  
$EndComp
Wire Wire Line
	4850 7150 4850 7250
$Comp
L passive:R R35
U 1 1 5B92C621
P 11150 2000
F 0 "R35" H 11260 2020 50  0000 L BNN
F 1 "3k3" H 11260 1980 50  0000 L TNN
F 2 "discrete_smt:RESC1608X50N_0603_WAVEPAD" H 11150 2000 50  0001 C CNN
F 3 "" H 11150 2000 50  0001 C CNN
	1    11150 2000
	0    -1   -1   0   
$EndComp
$Comp
L passive:R R36
U 1 1 5B94016E
P 11350 2000
F 0 "R36" H 11460 2020 50  0000 L BNN
F 1 "3k3" H 11460 1980 50  0000 L TNN
F 2 "discrete_smt:RESC1608X50N_0603_WAVEPAD" H 11350 2000 50  0001 C CNN
F 3 "" H 11350 2000 50  0001 C CNN
	1    11350 2000
	0    -1   -1   0   
$EndComp
$Comp
L passive:R R37
U 1 1 5B953AC4
P 11550 2000
F 0 "R37" H 11660 2020 50  0000 L BNN
F 1 "3k3" H 11660 1980 50  0000 L TNN
F 2 "discrete_smt:RESC1608X50N_0603_WAVEPAD" H 11550 2000 50  0001 C CNN
F 3 "" H 11550 2000 50  0001 C CNN
	1    11550 2000
	0    -1   -1   0   
$EndComp
$Comp
L passive:R R38
U 1 1 5B967421
P 11750 2000
F 0 "R38" H 11860 2020 50  0000 L BNN
F 1 "3k3" H 11860 1980 50  0000 L TNN
F 2 "discrete_smt:RESC1608X50N_0603_WAVEPAD" H 11750 2000 50  0001 C CNN
F 3 "" H 11750 2000 50  0001 C CNN
	1    11750 2000
	0    -1   -1   0   
$EndComp
Wire Wire Line
	11150 2200 11150 2350
Wire Wire Line
	11150 2350 10400 2350
Wire Wire Line
	11350 2200 11350 2450
Wire Wire Line
	11350 2450 10400 2450
Wire Wire Line
	10400 2550 11550 2550
Wire Wire Line
	11550 2550 11550 2200
Wire Wire Line
	10400 2650 11750 2650
Wire Wire Line
	11750 2650 11750 2200
$Comp
L sch_power:V_3V3 #PWR050
U 1 1 5B9E11C9
P 11450 1600
F 0 "#PWR050" H 11450 1600 50  0001 C CNN
F 1 "V_3V3" H 11450 1750 50  0000 C CNN
F 2 "" H 11450 1600 50  0001 C CNN
F 3 "" H 11450 1600 50  0001 C CNN
	1    11450 1600
	1    0    0    -1  
$EndComp
Wire Wire Line
	11450 1600 11450 1650
Wire Wire Line
	11450 1650 11350 1650
Wire Wire Line
	11150 1650 11150 1800
Wire Wire Line
	11350 1800 11350 1650
Connection ~ 11350 1650
Wire Wire Line
	11350 1650 11150 1650
Wire Wire Line
	11450 1650 11550 1650
Wire Wire Line
	11550 1650 11550 1800
Connection ~ 11450 1650
Wire Wire Line
	11550 1650 11750 1650
Wire Wire Line
	11750 1650 11750 1800
Connection ~ 11550 1650
Text Label 10500 2350 0    50   ~ 0
I2C0_SDA
Text Label 10500 2450 0    50   ~ 0
I2C0_SCL
Text Label 10500 2550 0    50   ~ 0
I2C1_SDA
Text Label 10500 2650 0    50   ~ 0
I2C1_SCL
$Comp
L passive:R R40
U 1 1 5BA92CDF
P 9200 4700
F 0 "R40" H 9310 4720 50  0000 L BNN
F 1 "220R" H 9310 4680 50  0000 L TNN
F 2 "discrete_smt:RESC1608X50N_0603_WAVEPAD" H 9200 4700 50  0001 C CNN
F 3 "" H 9200 4700 50  0001 C CNN
	1    9200 4700
	1    0    0    -1  
$EndComp
$Comp
L passive:R R39
U 1 1 5BA92CE6
P 9200 4500
F 0 "R39" H 9310 4520 50  0000 L BNN
F 1 "220R" H 9310 4480 50  0000 L TNN
F 2 "discrete_smt:RESC1608X50N_0603_WAVEPAD" H 9200 4500 50  0001 C CNN
F 3 "" H 9200 4500 50  0001 C CNN
	1    9200 4500
	1    0    0    -1  
$EndComp
Wire Wire Line
	9400 4700 9900 4700
Text Notes 8900 4900 0    50   ~ 0
LED Placeholders
Wire Notes Line
	8900 4900 9600 4900
Wire Notes Line
	9600 4900 9600 4350
Wire Notes Line
	9600 4350 8900 4350
Wire Notes Line
	8900 4350 8900 4900
Wire Wire Line
	8700 4500 9000 4500
Wire Wire Line
	9400 4500 9900 4500
Wire Wire Line
	8400 4400 8700 4400
Wire Wire Line
	8700 4400 8700 4500
$Comp
L misc:TESTPOINT TP3
U 1 1 5AFBFFAE
P 9250 1550
F 0 "TP3" H 9500 1550 50  0000 C CNN
F 1 "TESTPOINT" H 9800 1550 50  0001 C CNN
F 2 "misc:TESTPOINT_RND_1mm_SingleSide" H 9250 1550 50  0001 C CNN
F 3 "" H 9250 1550 50  0001 C CNN
	1    9250 1550
	1    0    0    -1  
$EndComp
Wire Wire Line
	9250 1550 9150 1550
Wire Wire Line
	9150 1550 9150 1700
Connection ~ 9150 1700
Wire Wire Line
	9150 1700 9200 1700
$Comp
L misc:TESTPOINT TP1
U 1 1 5AFD6F9A
P 2200 6250
F 0 "TP1" H 2450 6250 50  0000 C CNN
F 1 "TESTPOINT" H 2750 6250 50  0001 C CNN
F 2 "misc:TESTPOINT_RND_1mm_SingleSide" H 2200 6250 50  0001 C CNN
F 3 "" H 2200 6250 50  0001 C CNN
	1    2200 6250
	1    0    0    -1  
$EndComp
$Comp
L misc:TESTPOINT TP2
U 1 1 5AFD70BB
P 2200 6350
F 0 "TP2" H 2450 6350 50  0000 C CNN
F 1 "TESTPOINT" H 2750 6350 50  0001 C CNN
F 2 "misc:TESTPOINT_RND_1mm_SingleSide" H 2200 6350 50  0001 C CNN
F 3 "" H 2200 6350 50  0001 C CNN
	1    2200 6350
	1    0    0    -1  
$EndComp
$Comp
L sch_power:GND #PWR053
U 1 1 5B0042D8
P 2150 6450
F 0 "#PWR053" H 2150 6350 50  0001 C CNN
F 1 "GND" H 2150 6350 50  0000 C CNN
F 2 "" H 2150 6450 50  0001 C CNN
F 3 "" H 2150 6450 50  0001 C CNN
	1    2150 6450
	1    0    0    -1  
$EndComp
Wire Wire Line
	2150 6350 2150 6450
Wire Wire Line
	2200 6350 2150 6350
Wire Wire Line
	2200 6250 2150 6250
Wire Wire Line
	2150 6250 2150 6150
Connection ~ 2150 6150
Wire Wire Line
	2150 6150 3050 6150
$Comp
L ic:U_CTRL_TMP75AIDR U5
U 1 1 5B187FA7
P 13500 7300
F 0 "U5" H 14000 7450 50  0000 C CNN
F 1 "U_CTRL_TMP75AIDR" H 13650 6850 50  0000 L CNN
F 2 "ic_smt:SOIC8P127_490X600X175L83X42N" H 13500 7300 50  0001 C CNN
F 3 "" H 13500 7300 50  0001 C CNN
	1    13500 7300
	1    0    0    -1  
$EndComp
$Comp
L connector:J_GEN_4PIN-1COLX4ROW J13
U 1 1 5B189616
P 12950 7200
F 0 "J13" H 13200 7350 50  0000 C CNN
F 1 "J_GEN_4PIN-1COLX4ROW" V 13350 6600 50  0000 L CNN
F 2 "connector_tht:PINHEADER_2.54MM_1x4" H 12950 7200 50  0001 C CNN
F 3 "" H 12950 7200 50  0001 C CNN
	1    12950 7200
	-1   0    0    -1  
$EndComp
Wire Wire Line
	12950 7300 13500 7300
Wire Wire Line
	12950 7400 13500 7400
Wire Wire Line
	12950 7200 13400 7200
Wire Wire Line
	13400 7200 13400 7050
Wire Wire Line
	13400 7050 14600 7050
Wire Wire Line
	12950 7500 13400 7500
Wire Wire Line
	13400 7500 13400 7600
Wire Wire Line
	13400 7600 13500 7600
Wire Wire Line
	13400 7600 13400 8200
Connection ~ 13400 7600
$Comp
L passive:R R53
U 1 1 5B4F95EE
P 15100 7100
F 0 "R53" H 15210 7120 50  0000 L BNN
F 1 "0R" H 15210 7080 50  0000 L TNN
F 2 "discrete_smt:RESC1608X50N_0603_WAVEPAD" H 15100 7100 50  0001 C CNN
F 3 "" H 15100 7100 50  0001 C CNN
	1    15100 7100
	0    -1   -1   0   
$EndComp
$Comp
L passive:R R57
U 1 1 5B6CCA78
P 15300 7100
F 0 "R57" H 15410 7120 50  0000 L BNN
F 1 "0R" H 15410 7080 50  0000 L TNN
F 2 "discrete_smt:RESC1608X50N_0603_WAVEPAD" H 15300 7100 50  0001 C CNN
F 3 "" H 15300 7100 50  0001 C CNN
	1    15300 7100
	0    -1   -1   0   
$EndComp
$Comp
L passive:R R61
U 1 1 5B6E87FE
P 15500 7100
F 0 "R61" H 15610 7120 50  0000 L BNN
F 1 "0R" H 15610 7080 50  0000 L TNN
F 2 "discrete_smt:RESC1608X50N_0603_WAVEPAD" H 15500 7100 50  0001 C CNN
F 3 "" H 15500 7100 50  0001 C CNN
	1    15500 7100
	0    -1   -1   0   
$EndComp
$Comp
L passive:R R54
U 1 1 5B70459F
P 15100 7900
F 0 "R54" H 15210 7920 50  0000 L BNN
F 1 "0R" H 15210 7880 50  0000 L TNN
F 2 "discrete_smt:RESC1608X50N_0603_WAVEPAD" H 15100 7900 50  0001 C CNN
F 3 "" H 15100 7900 50  0001 C CNN
	1    15100 7900
	0    -1   -1   0   
$EndComp
$Comp
L passive:R R58
U 1 1 5B72032D
P 15300 7900
F 0 "R58" H 15410 7920 50  0000 L BNN
F 1 "0R" H 15410 7880 50  0000 L TNN
F 2 "discrete_smt:RESC1608X50N_0603_WAVEPAD" H 15300 7900 50  0001 C CNN
F 3 "" H 15300 7900 50  0001 C CNN
	1    15300 7900
	0    -1   -1   0   
$EndComp
$Comp
L passive:R R62
U 1 1 5B73C0B4
P 15500 7900
F 0 "R62" H 15610 7920 50  0000 L BNN
F 1 "0R" H 15610 7880 50  0000 L TNN
F 2 "discrete_smt:RESC1608X50N_0603_WAVEPAD" H 15500 7900 50  0001 C CNN
F 3 "" H 15500 7900 50  0001 C CNN
	1    15500 7900
	0    -1   -1   0   
$EndComp
Wire Wire Line
	14500 7300 14600 7300
Wire Wire Line
	14600 7300 14600 7050
Wire Wire Line
	14500 7400 15100 7400
Wire Wire Line
	15100 7400 15100 7300
Wire Wire Line
	14500 7500 15300 7500
Wire Wire Line
	14500 7600 15500 7600
Wire Wire Line
	15500 7600 15500 7300
Wire Wire Line
	15100 7700 15100 7400
Connection ~ 15100 7400
Wire Wire Line
	15300 7300 15300 7500
Connection ~ 15300 7500
Wire Wire Line
	15300 7500 15300 7700
Wire Wire Line
	15500 7700 15500 7600
Connection ~ 15500 7600
Wire Wire Line
	13400 8200 14600 8200
Wire Wire Line
	15100 8200 15100 8100
Wire Wire Line
	15100 8200 15300 8200
Wire Wire Line
	15300 8200 15300 8100
Connection ~ 15100 8200
Wire Wire Line
	15300 8200 15500 8200
Wire Wire Line
	15500 8200 15500 8100
Connection ~ 15300 8200
Wire Wire Line
	15100 6900 15100 6800
Wire Wire Line
	15100 6800 14600 6800
Wire Wire Line
	14600 6800 14600 7050
Connection ~ 14600 7050
Wire Wire Line
	15100 6800 15300 6800
Wire Wire Line
	15300 6800 15300 6900
Connection ~ 15100 6800
Wire Wire Line
	15300 6800 15500 6800
Wire Wire Line
	15500 6800 15500 6900
Connection ~ 15300 6800
$Comp
L passive:C_NP C15
U 1 1 5BA2DA49
P 14600 7950
F 0 "C15" H 14660 7970 50  0000 L BNN
F 1 "100nF" H 14660 7930 50  0000 L TNN
F 2 "discrete_smt:CAPC1005X55_0402_IPC-B" H 14600 7950 50  0001 C CNN
F 3 "" H 14600 7950 50  0001 C CNN
	1    14600 7950
	0    -1   -1   0   
$EndComp
Wire Wire Line
	14600 7300 14600 7850
Connection ~ 14600 7300
Wire Wire Line
	14600 8200 14600 8050
Connection ~ 14600 8200
Wire Wire Line
	14600 8200 15100 8200
$Comp
L ic:U_CTRL_TMP75AIDR U6
U 1 1 5BA811DA
P 13500 8900
F 0 "U6" H 14000 9050 50  0000 C CNN
F 1 "U_CTRL_TMP75AIDR" H 13650 8450 50  0000 L CNN
F 2 "ic_smt:SOIC8P127_490X600X175L83X42N" H 13500 8900 50  0001 C CNN
F 3 "" H 13500 8900 50  0001 C CNN
	1    13500 8900
	1    0    0    -1  
$EndComp
$Comp
L connector:J_GEN_4PIN-1COLX4ROW J14
U 1 1 5BA811E1
P 12950 8800
F 0 "J14" H 13200 8950 50  0000 C CNN
F 1 "J_GEN_4PIN-1COLX4ROW" V 13350 8200 50  0000 L CNN
F 2 "connector_tht:PINHEADER_2.54MM_1x4" H 12950 8800 50  0001 C CNN
F 3 "" H 12950 8800 50  0001 C CNN
	1    12950 8800
	-1   0    0    -1  
$EndComp
Wire Wire Line
	12950 8900 13500 8900
Wire Wire Line
	12950 9000 13500 9000
Wire Wire Line
	12950 8800 13400 8800
Wire Wire Line
	13400 8800 13400 8650
Wire Wire Line
	13400 8650 14600 8650
Wire Wire Line
	12950 9100 13400 9100
Wire Wire Line
	13400 9100 13400 9200
Wire Wire Line
	13400 9200 13500 9200
Wire Wire Line
	13400 9200 13400 9800
Connection ~ 13400 9200
$Comp
L passive:R R55
U 1 1 5BA811F2
P 15100 8700
F 0 "R55" H 15210 8720 50  0000 L BNN
F 1 "0R" H 15210 8680 50  0000 L TNN
F 2 "discrete_smt:RESC1608X50N_0603_WAVEPAD" H 15100 8700 50  0001 C CNN
F 3 "" H 15100 8700 50  0001 C CNN
	1    15100 8700
	0    -1   -1   0   
$EndComp
$Comp
L passive:R R59
U 1 1 5BA811F9
P 15300 8700
F 0 "R59" H 15410 8720 50  0000 L BNN
F 1 "0R" H 15410 8680 50  0000 L TNN
F 2 "discrete_smt:RESC1608X50N_0603_WAVEPAD" H 15300 8700 50  0001 C CNN
F 3 "" H 15300 8700 50  0001 C CNN
	1    15300 8700
	0    -1   -1   0   
$EndComp
$Comp
L passive:R R63
U 1 1 5BA81200
P 15500 8700
F 0 "R63" H 15610 8720 50  0000 L BNN
F 1 "0R" H 15610 8680 50  0000 L TNN
F 2 "discrete_smt:RESC1608X50N_0603_WAVEPAD" H 15500 8700 50  0001 C CNN
F 3 "" H 15500 8700 50  0001 C CNN
	1    15500 8700
	0    -1   -1   0   
$EndComp
$Comp
L passive:R R56
U 1 1 5BA81207
P 15100 9500
F 0 "R56" H 15210 9520 50  0000 L BNN
F 1 "0R" H 15210 9480 50  0000 L TNN
F 2 "discrete_smt:RESC1608X50N_0603_WAVEPAD" H 15100 9500 50  0001 C CNN
F 3 "" H 15100 9500 50  0001 C CNN
	1    15100 9500
	0    -1   -1   0   
$EndComp
$Comp
L passive:R R60
U 1 1 5BA8120E
P 15300 9500
F 0 "R60" H 15410 9520 50  0000 L BNN
F 1 "0R" H 15410 9480 50  0000 L TNN
F 2 "discrete_smt:RESC1608X50N_0603_WAVEPAD" H 15300 9500 50  0001 C CNN
F 3 "" H 15300 9500 50  0001 C CNN
	1    15300 9500
	0    -1   -1   0   
$EndComp
$Comp
L passive:R R64
U 1 1 5BA81215
P 15500 9500
F 0 "R64" H 15610 9520 50  0000 L BNN
F 1 "0R" H 15610 9480 50  0000 L TNN
F 2 "discrete_smt:RESC1608X50N_0603_WAVEPAD" H 15500 9500 50  0001 C CNN
F 3 "" H 15500 9500 50  0001 C CNN
	1    15500 9500
	0    -1   -1   0   
$EndComp
Wire Wire Line
	14500 8900 14600 8900
Wire Wire Line
	14600 8900 14600 8650
Wire Wire Line
	14500 9000 15100 9000
Wire Wire Line
	15100 9000 15100 8900
Wire Wire Line
	14500 9100 15300 9100
Wire Wire Line
	14500 9200 15500 9200
Wire Wire Line
	15500 9200 15500 8900
Wire Wire Line
	15100 9300 15100 9000
Connection ~ 15100 9000
Wire Wire Line
	15300 8900 15300 9100
Connection ~ 15300 9100
Wire Wire Line
	15300 9100 15300 9300
Wire Wire Line
	15500 9300 15500 9200
Connection ~ 15500 9200
Wire Wire Line
	13400 9800 14600 9800
Wire Wire Line
	15100 9800 15100 9700
Wire Wire Line
	15100 9800 15300 9800
Wire Wire Line
	15300 9800 15300 9700
Connection ~ 15100 9800
Wire Wire Line
	15300 9800 15500 9800
Wire Wire Line
	15500 9800 15500 9700
Connection ~ 15300 9800
Wire Wire Line
	15100 8500 15100 8400
Wire Wire Line
	15100 8400 14600 8400
Wire Wire Line
	14600 8400 14600 8650
Connection ~ 14600 8650
Wire Wire Line
	15100 8400 15300 8400
Wire Wire Line
	15300 8400 15300 8500
Connection ~ 15100 8400
Wire Wire Line
	15300 8400 15500 8400
Wire Wire Line
	15500 8400 15500 8500
Connection ~ 15300 8400
$Comp
L passive:C_NP C16
U 1 1 5BA8123C
P 14600 9550
F 0 "C16" H 14660 9570 50  0000 L BNN
F 1 "100nF" H 14660 9530 50  0000 L TNN
F 2 "discrete_smt:CAPC1005X55_0402_IPC-B" H 14600 9550 50  0001 C CNN
F 3 "" H 14600 9550 50  0001 C CNN
	1    14600 9550
	0    -1   -1   0   
$EndComp
Wire Wire Line
	14600 8900 14600 9450
Connection ~ 14600 8900
Wire Wire Line
	14600 9800 14600 9650
Connection ~ 14600 9800
Wire Wire Line
	14600 9800 15100 9800
Text Notes 8450 6700 0    200  ~ 0
TMP75 Boards
$Comp
L ic:U_CTRL_TMP75AIDR U1
U 1 1 5BB6B27D
P 10200 7100
F 0 "U1" H 10700 7250 50  0000 C CNN
F 1 "U_CTRL_TMP75AIDR" H 10350 6650 50  0000 L CNN
F 2 "ic_smt:SOIC8P127_490X600X175L83X42N" H 10200 7100 50  0001 C CNN
F 3 "" H 10200 7100 50  0001 C CNN
	1    10200 7100
	1    0    0    -1  
$EndComp
$Comp
L connector:J_GEN_4PIN-1COLX4ROW J11
U 1 1 5BB6B284
P 9650 7000
F 0 "J11" H 9900 7150 50  0000 C CNN
F 1 "J_GEN_4PIN-1COLX4ROW" V 10050 6400 50  0000 L CNN
F 2 "connector_tht:PINHEADER_2.54MM_1x4" H 9650 7000 50  0001 C CNN
F 3 "" H 9650 7000 50  0001 C CNN
	1    9650 7000
	-1   0    0    -1  
$EndComp
Wire Wire Line
	9650 7100 10200 7100
Wire Wire Line
	9650 7200 10200 7200
Wire Wire Line
	9650 7000 10100 7000
Wire Wire Line
	10100 7000 10100 6850
Wire Wire Line
	10100 6850 11300 6850
Wire Wire Line
	9650 7300 10100 7300
Wire Wire Line
	10100 7300 10100 7400
Wire Wire Line
	10100 7400 10200 7400
Wire Wire Line
	10100 7400 10100 8000
Connection ~ 10100 7400
$Comp
L passive:R R41
U 1 1 5BB6B295
P 11800 6900
F 0 "R41" H 11910 6920 50  0000 L BNN
F 1 "0R" H 11910 6880 50  0000 L TNN
F 2 "discrete_smt:RESC1608X50N_0603_WAVEPAD" H 11800 6900 50  0001 C CNN
F 3 "" H 11800 6900 50  0001 C CNN
	1    11800 6900
	0    -1   -1   0   
$EndComp
$Comp
L passive:R R45
U 1 1 5BB6B29C
P 12000 6900
F 0 "R45" H 12110 6920 50  0000 L BNN
F 1 "0R" H 12110 6880 50  0000 L TNN
F 2 "discrete_smt:RESC1608X50N_0603_WAVEPAD" H 12000 6900 50  0001 C CNN
F 3 "" H 12000 6900 50  0001 C CNN
	1    12000 6900
	0    -1   -1   0   
$EndComp
$Comp
L passive:R R49
U 1 1 5BB6B2A3
P 12200 6900
F 0 "R49" H 12310 6920 50  0000 L BNN
F 1 "0R" H 12310 6880 50  0000 L TNN
F 2 "discrete_smt:RESC1608X50N_0603_WAVEPAD" H 12200 6900 50  0001 C CNN
F 3 "" H 12200 6900 50  0001 C CNN
	1    12200 6900
	0    -1   -1   0   
$EndComp
$Comp
L passive:R R42
U 1 1 5BB6B2AA
P 11800 7700
F 0 "R42" H 11910 7720 50  0000 L BNN
F 1 "0R" H 11910 7680 50  0000 L TNN
F 2 "discrete_smt:RESC1608X50N_0603_WAVEPAD" H 11800 7700 50  0001 C CNN
F 3 "" H 11800 7700 50  0001 C CNN
	1    11800 7700
	0    -1   -1   0   
$EndComp
$Comp
L passive:R R46
U 1 1 5BB6B2B1
P 12000 7700
F 0 "R46" H 12110 7720 50  0000 L BNN
F 1 "0R" H 12110 7680 50  0000 L TNN
F 2 "discrete_smt:RESC1608X50N_0603_WAVEPAD" H 12000 7700 50  0001 C CNN
F 3 "" H 12000 7700 50  0001 C CNN
	1    12000 7700
	0    -1   -1   0   
$EndComp
$Comp
L passive:R R50
U 1 1 5BB6B2B8
P 12200 7700
F 0 "R50" H 12310 7720 50  0000 L BNN
F 1 "0R" H 12310 7680 50  0000 L TNN
F 2 "discrete_smt:RESC1608X50N_0603_WAVEPAD" H 12200 7700 50  0001 C CNN
F 3 "" H 12200 7700 50  0001 C CNN
	1    12200 7700
	0    -1   -1   0   
$EndComp
Wire Wire Line
	11200 7100 11300 7100
Wire Wire Line
	11300 7100 11300 6850
Wire Wire Line
	11200 7200 11800 7200
Wire Wire Line
	11800 7200 11800 7100
Wire Wire Line
	11200 7300 12000 7300
Wire Wire Line
	11200 7400 12200 7400
Wire Wire Line
	12200 7400 12200 7100
Wire Wire Line
	11800 7500 11800 7200
Connection ~ 11800 7200
Wire Wire Line
	12000 7100 12000 7300
Connection ~ 12000 7300
Wire Wire Line
	12000 7300 12000 7500
Wire Wire Line
	12200 7500 12200 7400
Connection ~ 12200 7400
Wire Wire Line
	10100 8000 11300 8000
Wire Wire Line
	11800 8000 11800 7900
Wire Wire Line
	11800 8000 12000 8000
Wire Wire Line
	12000 8000 12000 7900
Connection ~ 11800 8000
Wire Wire Line
	12000 8000 12200 8000
Wire Wire Line
	12200 8000 12200 7900
Connection ~ 12000 8000
Wire Wire Line
	11800 6700 11800 6600
Wire Wire Line
	11800 6600 11300 6600
Wire Wire Line
	11300 6600 11300 6850
Connection ~ 11300 6850
Wire Wire Line
	11800 6600 12000 6600
Wire Wire Line
	12000 6600 12000 6700
Connection ~ 11800 6600
Wire Wire Line
	12000 6600 12200 6600
Wire Wire Line
	12200 6600 12200 6700
Connection ~ 12000 6600
$Comp
L passive:C_NP C13
U 1 1 5BB6B2DF
P 11300 7750
F 0 "C13" H 11360 7770 50  0000 L BNN
F 1 "100nF" H 11360 7730 50  0000 L TNN
F 2 "discrete_smt:CAPC1005X55_0402_IPC-B" H 11300 7750 50  0001 C CNN
F 3 "" H 11300 7750 50  0001 C CNN
	1    11300 7750
	0    -1   -1   0   
$EndComp
Wire Wire Line
	11300 7100 11300 7650
Connection ~ 11300 7100
Wire Wire Line
	11300 8000 11300 7850
Connection ~ 11300 8000
Wire Wire Line
	11300 8000 11800 8000
$Comp
L ic:U_CTRL_TMP75AIDR U3
U 1 1 5BCD96FE
P 10200 8650
F 0 "U3" H 10700 8800 50  0000 C CNN
F 1 "U_CTRL_TMP75AIDR" H 10350 8200 50  0000 L CNN
F 2 "ic_smt:SOIC8P127_490X600X175L83X42N" H 10200 8650 50  0001 C CNN
F 3 "" H 10200 8650 50  0001 C CNN
	1    10200 8650
	1    0    0    -1  
$EndComp
$Comp
L connector:J_GEN_4PIN-1COLX4ROW J12
U 1 1 5BCD9705
P 9650 8550
F 0 "J12" H 9900 8700 50  0000 C CNN
F 1 "J_GEN_4PIN-1COLX4ROW" V 10050 7950 50  0000 L CNN
F 2 "connector_tht:PINHEADER_2.54MM_1x4" H 9650 8550 50  0001 C CNN
F 3 "" H 9650 8550 50  0001 C CNN
	1    9650 8550
	-1   0    0    -1  
$EndComp
Wire Wire Line
	9650 8650 10200 8650
Wire Wire Line
	9650 8750 10200 8750
Wire Wire Line
	9650 8550 10100 8550
Wire Wire Line
	10100 8550 10100 8400
Wire Wire Line
	10100 8400 11300 8400
Wire Wire Line
	9650 8850 10100 8850
Wire Wire Line
	10100 8850 10100 8950
Wire Wire Line
	10100 8950 10200 8950
Wire Wire Line
	10100 8950 10100 9550
Connection ~ 10100 8950
$Comp
L passive:R R43
U 1 1 5BCD9716
P 11800 8450
F 0 "R43" H 11910 8470 50  0000 L BNN
F 1 "0R" H 11910 8430 50  0000 L TNN
F 2 "discrete_smt:RESC1608X50N_0603_WAVEPAD" H 11800 8450 50  0001 C CNN
F 3 "" H 11800 8450 50  0001 C CNN
	1    11800 8450
	0    -1   -1   0   
$EndComp
$Comp
L passive:R R47
U 1 1 5BCD971D
P 12000 8450
F 0 "R47" H 12110 8470 50  0000 L BNN
F 1 "0R" H 12110 8430 50  0000 L TNN
F 2 "discrete_smt:RESC1608X50N_0603_WAVEPAD" H 12000 8450 50  0001 C CNN
F 3 "" H 12000 8450 50  0001 C CNN
	1    12000 8450
	0    -1   -1   0   
$EndComp
$Comp
L passive:R R51
U 1 1 5BCD9724
P 12200 8450
F 0 "R51" H 12310 8470 50  0000 L BNN
F 1 "0R" H 12310 8430 50  0000 L TNN
F 2 "discrete_smt:RESC1608X50N_0603_WAVEPAD" H 12200 8450 50  0001 C CNN
F 3 "" H 12200 8450 50  0001 C CNN
	1    12200 8450
	0    -1   -1   0   
$EndComp
$Comp
L passive:R R44
U 1 1 5BCD972B
P 11800 9250
F 0 "R44" H 11910 9270 50  0000 L BNN
F 1 "0R" H 11910 9230 50  0000 L TNN
F 2 "discrete_smt:RESC1608X50N_0603_WAVEPAD" H 11800 9250 50  0001 C CNN
F 3 "" H 11800 9250 50  0001 C CNN
	1    11800 9250
	0    -1   -1   0   
$EndComp
$Comp
L passive:R R48
U 1 1 5BCD9732
P 12000 9250
F 0 "R48" H 12110 9270 50  0000 L BNN
F 1 "0R" H 12110 9230 50  0000 L TNN
F 2 "discrete_smt:RESC1608X50N_0603_WAVEPAD" H 12000 9250 50  0001 C CNN
F 3 "" H 12000 9250 50  0001 C CNN
	1    12000 9250
	0    -1   -1   0   
$EndComp
$Comp
L passive:R R52
U 1 1 5BCD9739
P 12200 9250
F 0 "R52" H 12310 9270 50  0000 L BNN
F 1 "0R" H 12310 9230 50  0000 L TNN
F 2 "discrete_smt:RESC1608X50N_0603_WAVEPAD" H 12200 9250 50  0001 C CNN
F 3 "" H 12200 9250 50  0001 C CNN
	1    12200 9250
	0    -1   -1   0   
$EndComp
Wire Wire Line
	11200 8650 11300 8650
Wire Wire Line
	11300 8650 11300 8400
Wire Wire Line
	11200 8750 11800 8750
Wire Wire Line
	11800 8750 11800 8650
Wire Wire Line
	11200 8850 12000 8850
Wire Wire Line
	11200 8950 12200 8950
Wire Wire Line
	12200 8950 12200 8650
Wire Wire Line
	11800 9050 11800 8750
Connection ~ 11800 8750
Wire Wire Line
	12000 8650 12000 8850
Connection ~ 12000 8850
Wire Wire Line
	12000 8850 12000 9050
Wire Wire Line
	12200 9050 12200 8950
Connection ~ 12200 8950
Wire Wire Line
	10100 9550 11300 9550
Wire Wire Line
	11800 9550 11800 9450
Wire Wire Line
	11800 9550 12000 9550
Wire Wire Line
	12000 9550 12000 9450
Connection ~ 11800 9550
Wire Wire Line
	12000 9550 12200 9550
Wire Wire Line
	12200 9550 12200 9450
Connection ~ 12000 9550
Wire Wire Line
	11800 8250 11800 8150
Wire Wire Line
	11800 8150 11300 8150
Wire Wire Line
	11300 8150 11300 8400
Connection ~ 11300 8400
Wire Wire Line
	11800 8150 12000 8150
Wire Wire Line
	12000 8150 12000 8250
Connection ~ 11800 8150
Wire Wire Line
	12000 8150 12200 8150
Wire Wire Line
	12200 8150 12200 8250
Connection ~ 12000 8150
$Comp
L passive:C_NP C14
U 1 1 5BCD9760
P 11300 9300
F 0 "C14" H 11360 9320 50  0000 L BNN
F 1 "100nF" H 11360 9280 50  0000 L TNN
F 2 "discrete_smt:CAPC1005X55_0402_IPC-B" H 11300 9300 50  0001 C CNN
F 3 "" H 11300 9300 50  0001 C CNN
	1    11300 9300
	0    -1   -1   0   
$EndComp
Wire Wire Line
	11300 8650 11300 9200
Connection ~ 11300 8650
Wire Wire Line
	11300 9550 11300 9400
Connection ~ 11300 9550
Wire Wire Line
	11300 9550 11800 9550
Wire Notes Line
	8450 6450 8450 11200
Wire Notes Line
	8450 6450 16050 6450
Text Label 14450 1800 0    50   ~ 0
SW_G1
Text Label 14450 3650 0    50   ~ 0
SW_G2
Text Label 14450 5450 0    50   ~ 0
SW_G3
Text Label 3150 3350 0    50   ~ 0
USBD+
Text Label 3150 3450 0    50   ~ 0
USBD-
Text Label 1900 3350 0    50   ~ 0
USBDR+
Text Label 1900 3450 0    50   ~ 0
USBDR-
$Comp
L ic:U_CTRL_TMP75AIDR U7
U 1 1 5B10DA6F
P 9650 10200
F 0 "U7" H 10150 10350 50  0000 C CNN
F 1 "U_CTRL_TMP75AIDR" H 9800 9750 50  0000 L CNN
F 2 "ic_smt:SOIC8P127_490X600X175L83X42N" H 9650 10200 50  0001 C CNN
F 3 "" H 9650 10200 50  0001 C CNN
	1    9650 10200
	1    0    0    -1  
$EndComp
$Comp
L connector:J_GEN_4PIN-1COLX4ROW J15
U 1 1 5B10DA76
P 9100 10100
F 0 "J15" H 9350 10250 50  0000 C CNN
F 1 "J_GEN_4PIN-1COLX4ROW" V 9500 9500 50  0000 L CNN
F 2 "connector_tht:PINHEADER_2.54MM_1x4" H 9100 10100 50  0001 C CNN
F 3 "" H 9100 10100 50  0001 C CNN
	1    9100 10100
	-1   0    0    -1  
$EndComp
Wire Wire Line
	9100 10200 9650 10200
Wire Wire Line
	9100 10300 9650 10300
Wire Wire Line
	9100 10100 9550 10100
Wire Wire Line
	9550 10100 9550 9950
Wire Wire Line
	9550 9950 10750 9950
Wire Wire Line
	9100 10400 9550 10400
Wire Wire Line
	9550 10400 9550 10500
Wire Wire Line
	9550 10500 9650 10500
Wire Wire Line
	9550 10500 9550 11100
Connection ~ 9550 10500
$Comp
L passive:R R65
U 1 1 5B10DA87
P 11250 10000
F 0 "R65" H 11360 10020 50  0000 L BNN
F 1 "0R" H 11360 9980 50  0000 L TNN
F 2 "discrete_smt:RESC1608X50N_0603_WAVEPAD" H 11250 10000 50  0001 C CNN
F 3 "" H 11250 10000 50  0001 C CNN
	1    11250 10000
	0    -1   -1   0   
$EndComp
$Comp
L passive:R R67
U 1 1 5B10DA8E
P 11450 10000
F 0 "R67" H 11560 10020 50  0000 L BNN
F 1 "0R" H 11560 9980 50  0000 L TNN
F 2 "discrete_smt:RESC1608X50N_0603_WAVEPAD" H 11450 10000 50  0001 C CNN
F 3 "" H 11450 10000 50  0001 C CNN
	1    11450 10000
	0    -1   -1   0   
$EndComp
$Comp
L passive:R R69
U 1 1 5B10DA95
P 11650 10000
F 0 "R69" H 11760 10020 50  0000 L BNN
F 1 "0R" H 11760 9980 50  0000 L TNN
F 2 "discrete_smt:RESC1608X50N_0603_WAVEPAD" H 11650 10000 50  0001 C CNN
F 3 "" H 11650 10000 50  0001 C CNN
	1    11650 10000
	0    -1   -1   0   
$EndComp
$Comp
L passive:R R66
U 1 1 5B10DA9C
P 11250 10800
F 0 "R66" H 11360 10820 50  0000 L BNN
F 1 "0R" H 11360 10780 50  0000 L TNN
F 2 "discrete_smt:RESC1608X50N_0603_WAVEPAD" H 11250 10800 50  0001 C CNN
F 3 "" H 11250 10800 50  0001 C CNN
	1    11250 10800
	0    -1   -1   0   
$EndComp
$Comp
L passive:R R68
U 1 1 5B10DAA3
P 11450 10800
F 0 "R68" H 11560 10820 50  0000 L BNN
F 1 "0R" H 11560 10780 50  0000 L TNN
F 2 "discrete_smt:RESC1608X50N_0603_WAVEPAD" H 11450 10800 50  0001 C CNN
F 3 "" H 11450 10800 50  0001 C CNN
	1    11450 10800
	0    -1   -1   0   
$EndComp
$Comp
L passive:R R70
U 1 1 5B10DAAA
P 11650 10800
F 0 "R70" H 11760 10820 50  0000 L BNN
F 1 "0R" H 11760 10780 50  0000 L TNN
F 2 "discrete_smt:RESC1608X50N_0603_WAVEPAD" H 11650 10800 50  0001 C CNN
F 3 "" H 11650 10800 50  0001 C CNN
	1    11650 10800
	0    -1   -1   0   
$EndComp
Wire Wire Line
	10650 10200 10750 10200
Wire Wire Line
	10750 10200 10750 9950
Wire Wire Line
	10650 10300 11250 10300
Wire Wire Line
	11250 10300 11250 10200
Wire Wire Line
	10650 10400 11450 10400
Wire Wire Line
	10650 10500 11650 10500
Wire Wire Line
	11650 10500 11650 10200
Wire Wire Line
	11250 10600 11250 10300
Connection ~ 11250 10300
Wire Wire Line
	11450 10200 11450 10400
Connection ~ 11450 10400
Wire Wire Line
	11450 10400 11450 10600
Wire Wire Line
	11650 10600 11650 10500
Connection ~ 11650 10500
Wire Wire Line
	9550 11100 10750 11100
Wire Wire Line
	11250 11100 11250 11000
Wire Wire Line
	11250 11100 11450 11100
Wire Wire Line
	11450 11100 11450 11000
Connection ~ 11250 11100
Wire Wire Line
	11450 11100 11650 11100
Wire Wire Line
	11650 11100 11650 11000
Connection ~ 11450 11100
Wire Wire Line
	11250 9800 11250 9700
Wire Wire Line
	11250 9700 10750 9700
Wire Wire Line
	10750 9700 10750 9950
Connection ~ 10750 9950
Wire Wire Line
	11250 9700 11450 9700
Wire Wire Line
	11450 9700 11450 9800
Connection ~ 11250 9700
Wire Wire Line
	11450 9700 11650 9700
Wire Wire Line
	11650 9700 11650 9800
Connection ~ 11450 9700
$Comp
L passive:C_NP C17
U 1 1 5B10DAD1
P 10750 10850
F 0 "C17" H 10810 10870 50  0000 L BNN
F 1 "100nF" H 10810 10830 50  0000 L TNN
F 2 "discrete_smt:CAPC1005X55_0402_IPC-B" H 10750 10850 50  0001 C CNN
F 3 "" H 10750 10850 50  0001 C CNN
	1    10750 10850
	0    -1   -1   0   
$EndComp
Wire Wire Line
	10750 10200 10750 10750
Connection ~ 10750 10200
Wire Wire Line
	10750 11100 10750 10950
Connection ~ 10750 11100
Wire Wire Line
	10750 11100 11250 11100
$Comp
L misc:MTG_HOLE MTG1
U 1 1 5B148D0F
P 6150 6700
F 0 "MTG1" H 6150 6850 50  0000 C CNN
F 1 "MTG_HOLE" V 6300 6700 50  0000 C CNN
F 2 "misc:MTGP600H320" H 6150 6700 50  0001 C CNN
F 3 "" H 6150 6700 50  0001 C CNN
	1    6150 6700
	1    0    0    -1  
$EndComp
$Comp
L misc:MTG_HOLE MTG2
U 1 1 5B148EFD
P 6500 6700
F 0 "MTG2" H 6500 6850 50  0000 C CNN
F 1 "MTG_HOLE" V 6650 6700 50  0000 C CNN
F 2 "misc:MTGP600H320" H 6500 6700 50  0001 C CNN
F 3 "" H 6500 6700 50  0001 C CNN
	1    6500 6700
	1    0    0    -1  
$EndComp
$Comp
L misc:MTG_HOLE MTG3
U 1 1 5B18200E
P 6850 6700
F 0 "MTG3" H 6850 6850 50  0000 C CNN
F 1 "MTG_HOLE" V 7000 6700 50  0000 C CNN
F 2 "misc:MTGP600H320" H 6850 6700 50  0001 C CNN
F 3 "" H 6850 6700 50  0001 C CNN
	1    6850 6700
	1    0    0    -1  
$EndComp
$Comp
L misc:MTG_HOLE MTG4
U 1 1 5B1BB116
P 7250 6700
F 0 "MTG4" H 7250 6850 50  0000 C CNN
F 1 "MTG_HOLE" V 7400 6700 50  0000 C CNN
F 2 "misc:MTGP600H320" H 7250 6700 50  0001 C CNN
F 3 "" H 7250 6700 50  0001 C CNN
	1    7250 6700
	1    0    0    -1  
$EndComp
$Comp
L sch_power:GND #PWR0101
U 1 1 5B1F4764
P 6150 7050
F 0 "#PWR0101" H 6150 6950 50  0001 C CNN
F 1 "GND" H 6150 6950 50  0000 C CNN
F 2 "" H 6150 7050 50  0001 C CNN
F 3 "" H 6150 7050 50  0001 C CNN
	1    6150 7050
	1    0    0    -1  
$EndComp
Wire Wire Line
	6150 6950 6150 7050
$Comp
L sch_power:GND #PWR0102
U 1 1 5B22DCB6
P 6500 7050
F 0 "#PWR0102" H 6500 6950 50  0001 C CNN
F 1 "GND" H 6500 6950 50  0000 C CNN
F 2 "" H 6500 7050 50  0001 C CNN
F 3 "" H 6500 7050 50  0001 C CNN
	1    6500 7050
	1    0    0    -1  
$EndComp
Wire Wire Line
	6500 6950 6500 7050
$Comp
L sch_power:GND #PWR0103
U 1 1 5B267658
P 6850 7050
F 0 "#PWR0103" H 6850 6950 50  0001 C CNN
F 1 "GND" H 6850 6950 50  0000 C CNN
F 2 "" H 6850 7050 50  0001 C CNN
F 3 "" H 6850 7050 50  0001 C CNN
	1    6850 7050
	1    0    0    -1  
$EndComp
Wire Wire Line
	6850 6950 6850 7050
$Comp
L sch_power:GND #PWR0104
U 1 1 5B2A1447
P 7250 7050
F 0 "#PWR0104" H 7250 6950 50  0001 C CNN
F 1 "GND" H 7250 6950 50  0000 C CNN
F 2 "" H 7250 7050 50  0001 C CNN
F 3 "" H 7250 7050 50  0001 C CNN
	1    7250 7050
	1    0    0    -1  
$EndComp
Wire Wire Line
	7250 6950 7250 7050
$Comp
L misc:MTG_HOLE MTG5
U 1 1 5B3510D3
P 7600 6700
F 0 "MTG5" H 7600 6850 50  0000 C CNN
F 1 "MTG_HOLE" V 7750 6700 50  0000 C CNN
F 2 "misc:MTGP600H320" H 7600 6700 50  0001 C CNN
F 3 "" H 7600 6700 50  0001 C CNN
	1    7600 6700
	1    0    0    -1  
$EndComp
$Comp
L misc:MTG_HOLE MTG6
U 1 1 5B3510DA
P 8000 6700
F 0 "MTG6" H 8000 6850 50  0000 C CNN
F 1 "MTG_HOLE" V 8150 6700 50  0000 C CNN
F 2 "misc:MTGP600H320" H 8000 6700 50  0001 C CNN
F 3 "" H 8000 6700 50  0001 C CNN
	1    8000 6700
	1    0    0    -1  
$EndComp
$Comp
L sch_power:GND #PWR054
U 1 1 5B3510E1
P 7600 7050
F 0 "#PWR054" H 7600 6950 50  0001 C CNN
F 1 "GND" H 7600 6950 50  0000 C CNN
F 2 "" H 7600 7050 50  0001 C CNN
F 3 "" H 7600 7050 50  0001 C CNN
	1    7600 7050
	1    0    0    -1  
$EndComp
Wire Wire Line
	7600 6950 7600 7050
$Comp
L sch_power:GND #PWR055
U 1 1 5B3510E8
P 8000 7050
F 0 "#PWR055" H 8000 6950 50  0001 C CNN
F 1 "GND" H 8000 6950 50  0000 C CNN
F 2 "" H 8000 7050 50  0001 C CNN
F 3 "" H 8000 7050 50  0001 C CNN
	1    8000 7050
	1    0    0    -1  
$EndComp
Wire Wire Line
	8000 6950 8000 7050
$EndSCHEMATC
